ntt_verilog_codes/NTT/NTT.sim/sim_1/behav/xsim/ntt_waves_new.vcd
$date
   Wed Apr 29 04:15:15 2026
$end
$version
  2020.2
$end
$timescale
  1ps
$end
$scope module tb_ntt_top_new $end
$var reg 1 ! clk $end
$var reg 1 " reset $end
$var reg 1 # start $end
$var reg 1 $ mode $end
$var reg 1 % ext_coeff_we $end
$var reg 8 & ext_coeff_waddr [7:0] $end
$var reg 12 ' ext_coeff_wdata [11:0] $end
$var reg 8 ( ext_coeff_raddr [7:0] $end
$var wire 12 ) ext_coeff_rdata [11:0] $end
$var wire 1 * busy $end
$var wire 1 + done $end
$var integer 32 , total_tests $end
$var integer 32 - passed_tests $end
$var parameter 32 . Q [31:0] $end
$var parameter 32 / SCALE_FACTOR [31:0] $end
$scope module uut $end
$var wire 1 0 clk $end
$var wire 1 1 reset $end
$var wire 1 2 start $end
$var wire 1 3 mode $end
$var wire 1 4 ext_coeff_we $end
$var wire 8 5 ext_coeff_waddr [7:0] $end
$var wire 12 6 ext_coeff_wdata [11:0] $end
$var wire 8 7 ext_coeff_raddr [7:0] $end
$var wire 12 ) ext_coeff_rdata [11:0] $end
$var wire 1 * busy $end
$var wire 1 + done $end
$var wire 1 8 butterfly_enable $end
$var wire 2 9 phase [1:0] $end
$var wire 1 : advance_step $end
$var wire 1 ; addr_done $end
$var wire 10 < counter [9:0] $end
$var wire 1 = addr_active $end
$var wire 3 > stage_raw [2:0] $end
$var wire 3 ? stage_eff [2:0] $end
$var wire 7 @ step_idx [6:0] $end
$var wire 9 A addr_a_raw [8:0] $end
$var wire 9 B addr_b_raw [8:0] $end
$var wire 9 C addr_tw_raw [8:0] $end
$var wire 8 D coeff_addr_a [7:0] $end
$var wire 8 E coeff_addr_b [7:0] $end
$var wire 7 F tw_addr [6:0] $end
$var wire 12 G coeff_rd_a [11:0] $end
$var wire 12 H coeff_rd_b [11:0] $end
$var wire 12 I tw_data [11:0] $end
$var wire 12 J bf_out_a [11:0] $end
$var wire 12 K bf_out_b [11:0] $end
$var wire 1 L bf_valid_a $end
$var wire 1 M bf_valid_b $end
$var wire 1 N core_wr_en $end
$var wire 8 O core_wr_addr [7:0] $end
$var wire 12 P core_wr_data [11:0] $end
$var wire 1 Q coeff_wr_en $end
$var wire 8 R coeff_wr_addr [7:0] $end
$var wire 12 S coeff_wr_data [11:0] $end
$scope module u_ntt_controller $end
$var wire 1 0 clk $end
$var wire 1 1 reset $end
$var wire 1 2 start $end
$var wire 1 ; addr_done $end
$var reg 1 T busy $end
$var reg 1 U done $end
$var reg 1 V butterfly_enable $end
$var reg 2 W phase [1:0] $end
$var reg 1 X advance_step $end
$var reg 1 Y state $end
$var parameter 0 Z IDLE $end
$var parameter 0 [ RUN $end
$upscope $end
$scope module u_addr_gen $end
$var wire 1 0 clk $end
$var wire 1 1 reset $end
$var wire 1 2 start $end
$var wire 1 3 mode $end
$var wire 1 : advance_step $end
$var reg 10 \ counter [9:0] $end
$var reg 1 ] active $end
$var reg 1 ^ done $end
$var wire 3 > stage_raw [2:0] $end
$var wire 3 ? stage_eff [2:0] $end
$var wire 7 @ step_idx [6:0] $end
$var reg 9 _ addr_a_raw [8:0] $end
$var reg 9 ` addr_b_raw [8:0] $end
$var reg 9 a addr_tw_raw [8:0] $end
$var wire 3 b stage_xor [2:0] $end
$var parameter 10 c LAST_COUNT [9:0] $end
$upscope $end
$scope module u_coeff_mem $end
$var wire 1 0 clk $end
$var wire 8 D addr_a [7:0] $end
$var wire 12 G rd_data_a [11:0] $end
$var wire 8 E addr_b [7:0] $end
$var wire 12 H rd_data_b [11:0] $end
$var wire 8 7 addr_ext [7:0] $end
$var wire 12 ) rd_data_ext [11:0] $end
$var wire 1 Q wr_en $end
$var wire 8 R wr_addr [7:0] $end
$var wire 12 S wr_data [11:0] $end
$upscope $end
$scope module u_twiddle_mem $end
$var wire 1 3 mode $end
$var wire 7 F addr_tw [6:0] $end
$var wire 12 I tw_data [11:0] $end
$var wire 8 d actual_addr [7:0] $end
$upscope $end
$scope module u_butterfly_core $end
$var wire 1 0 clk $end
$var wire 1 1 reset $end
$var wire 1 8 enable $end
$var wire 1 3 mode $end
$var wire 2 9 phase [1:0] $end
$var wire 12 G a_in [11:0] $end
$var wire 12 H b_in [11:0] $end
$var wire 12 I tw_in [11:0] $end
$var reg 12 e out_a [11:0] $end
$var reg 12 f out_b [11:0] $end
$var reg 1 g valid_a $end
$var reg 1 h valid_b $end
$var reg 12 i reg_a [11:0] $end
$var reg 12 j reg_b [11:0] $end
$var reg 12 k reg_mul [11:0] $end
$var reg 12 l reg_sum [11:0] $end
$var reg 12 m reg_diff [11:0] $end
$var wire 12 n mul_res [11:0] $end
$var wire 12 o sum_res [11:0] $end
$var wire 12 p diff_res [11:0] $end
$var wire 12 q sum_res_scaled [11:0] $end
$var wire 12 r diff_res_scaled [11:0] $end
$var wire 12 s mult_in_a [11:0] $end
$var wire 12 t add_sub_in_b [11:0] $end
$scope module u_mod_mult_red $end
$var wire 12 s a [11:0] $end
$var wire 12 I b [11:0] $end
$var wire 12 n y [11:0] $end
$var wire 24 u prod_full [23:0] $end
$var parameter 0 v Q $end
$upscope $end
$scope module u_mod_add $end
$var wire 12 w a [11:0] $end
$var wire 12 t b [11:0] $end
$var wire 12 o y [11:0] $end
$var wire 13 x sum_full [12:0] $end
$var parameter 12 y Q [11:0] $end
$upscope $end
$scope module u_mod_sub $end
$var wire 12 z a [11:0] $end
$var wire 12 t b [11:0] $end
$var wire 12 p y [11:0] $end
$var parameter 12 { Q [11:0] $end
$upscope $end
$upscope $end
$scope module u_writeback_mux $end
$var wire 8 D addr_a [7:0] $end
$var wire 8 E addr_b [7:0] $end
$var wire 12 J out_a [11:0] $end
$var wire 12 K out_b [11:0] $end
$var wire 1 L valid_a $end
$var wire 1 M valid_b $end
$var reg 1 | wr_en $end
$var reg 8 } wr_addr [7:0] $end
$var reg 12 ~ wr_data [11:0] $end
$upscope $end
$upscope $end
$scope task run_test_case $end
$var integer 32 !! test_num $end
$var reg 1 "! test_mode $end
$var integer 32 #! i $end
$var integer 32 $! errors $end
$var integer 32 %! hw_val $end
$var integer 32 &! scaled_val $end
$upscope $end
$upscope $end
$enddefinitions $end
#0
$dumpvars
0!
bx !!
1"
x"!
0#
bx #!
0$
bx $!
0%
bx %!
b0 &
bx &!
b0 '
b0 (
bx )
0*
0+
b0 ,
b0 -
b110100000001 .
b110011100111 /
00
11
02
03
04
b0 5
b0 6
b0 7
08
b0 9
0:
0;
b0 <
0=
b0 >
b0 ?
b0 @
b0 A
b10000000 B
b101000000 C
b0 D
b10000000 E
b1000000 F
bx G
bx H
b11011000001 I
b0 J
b0 K
0L
0M
0N
b0 O
b0 P
0Q
b0 R
b0 S
0T
0U
0V
b0 W
0X
0Y
0Z
1[
b0 \
0]
0^
b0 _
b10000000 `
b101000000 a
b111 b
b1101111111 c
b1000000 d
b0 e
b0 f
0g
0h
b0 i
b0 j
b0 k
b0 l
b0 m
b0 n
b0 o
b0 p
b0 q
b0 r
b0 s
b0 t
b0 u
b110100000001 v
b0 w
b0 x
b110100000001 y
b0 z
b110100000001 {
0|
b0 }
b0 ~
$end
#5000
1!
10
#10000
0!
00
#15000
1!
10
#20000
0!
00
#25000
1!
10
#30000
0!
00
#35000
1!
10
#40000
0!
00
#45000
1!
10
#50000
0!
00
#55000
1!
10
#60000
0!
00
#65000
1!
10
#70000
0!
00
#75000
1!
10
#80000
0!
00
#85000
1!
10
#90000
0!
00
#95000
1!
10
#100000
0!
0"
00
01
#105000
1!
10
#110000
0!
00
#115000
1!
10
#120000
0!
b1 !!
0"!
b0 $!
b110100100 )
00
b110100100 G
b101101110110 H
#125000
1!
1#
1*
10
12
18
1=
1T
1V
1Y
1]
b0 e
b0 f
0g
0h
#130000
0!
00
#135000
1!
0#
10
02
b1 9
b1 W
b0 e
b0 f
0g
0h
b110100100 i
b101101110110 j
b101100000011 n
b110100100 o
b110100100 p
b11010010 q
b11010010 r
b101101110110 s
b0 t
b10011010110011111110110 u
b110100100 w
b110100100 x
b110100100 z
#140000
0!
00
#145000
1!
10
b10 9
b110010100111 J
1L
1N
b110010100111 P
1Q
b110010100111 S
b10 W
b110010100111 e
b0 f
1g
0h
b101100000011 k
b110010100111 o
b1110100010 p
b110011010100 q
b111010001 r
b101100000011 t
b110010100111 x
1|
b0 }
b110010100111 ~
#150000
0!
00
#155000
1!
b110010100111 )
10
b11 9
1:
b110010100111 G
b0 J
b1110100010 K
0L
1M
1N
b10000000 O
b1110100010 P
b10000000 R
b1110100010 S
b11 W
1X
b0 e
b1110100010 f
0g
1h
b1110100010 m
b101101110110 s
1|
b10000000 }
b1110100010 ~
#160000
0!
00
#165000
1!
10
b0 9
0:
b1 <
b1 @
b1 A
b10000001 B
b101000000 C
b1 D
b10000001 E
b11101001000 G
b110001111111 H
b0 K
0M
0N
b0 O
b0 P
0Q
b0 R
b0 S
b0 W
0X
b1 \
b1 _
b10000001 `
b101000000 a
b0 e
b0 f
0g
0h
0|
b0 }
b0 ~
#170000
0!
00
#175000
1!
10
b1 9
b1 W
b0 e
b0 f
0g
0h
b11101001000 i
b110001111111 j
b11001000010 n
b10101001010 o
b100101000110 p
b1010100101 q
b10010100011 r
b110001111111 s
b101100000011 t
b10101000110010110111111 u
b11101001000 w
b1001001001011 x
b11101001000 z
#180000
0!
00
#185000
1!
10
b10 9
b10001001 J
1L
1N
b1 O
b10001001 P
1Q
b1 R
b10001001 S
b10 W
b10001001 e
b0 f
1g
0h
b11001000010 k
b10001001 o
b100000110 p
b11011000101 q
b10000011 r
b11001000010 t
b110110001010 x
1|
b1 }
b10001001 ~
#190000
0!
00
#195000
1!
10
b11 9
1:
b10001001 G
b0 J
b100000110 K
0L
1M
1N
b10000001 O
b100000110 P
b10000001 R
b100000110 S
b11 W
1X
b0 e
b100000110 f
0g
1h
b100000110 m
b110001111111 s
1|
b10000001 }
b100000110 ~
#200000
0!
00
#205000
1!
10
b0 9
0:
b10 <
b10 @
b10 A
b10000010 B
b101000000 C
b10 D
b10000010 E
b11011001111 G
b100110110111 H
b0 K
0M
0N
b0 O
b0 P
0Q
b0 R
b0 S
b0 W
0X
b10 \
b10 _
b10000010 `
b101000000 a
b0 e
b0 f
0g
0h
0|
b0 }
b0 ~
#210000
0!
00
#215000
1!
10
b1 9
b1 W
b0 e
b0 f
0g
0h
b11011001111 i
b100110110111 j
b100011101100 n
b10000 o
b10001101 p
b1000 q
b11011000111 r
b100110110111 s
b11001000010 t
b10000011001110011110111 u
b11011001111 w
b110100010001 x
b11011001111 z
#220000
0!
00
#225000
1!
10
b10 9
b1010111010 J
1L
1N
b10 O
b1010111010 P
1Q
b10 R
b1010111010 S
b10 W
b1010111010 e
b0 f
1g
0h
b100011101100 k
b1010111010 o
b101011100100 p
b101011101 q
b10101110010 r
b100011101100 t
b111110111011 x
1|
b10 }
b1010111010 ~
#230000
0!
00
#235000
1!
10
b11 9
1:
b1010111010 G
b0 J
b101011100100 K
0L
1M
1N
b10000010 O
b101011100100 P
b10000010 R
b101011100100 S
b11 W
1X
b0 e
b101011100100 f
0g
1h
b101011100100 m
b100110110111 s
1|
b10000010 }
b101011100100 ~
#240000
0!
00
#245000
1!
10
b0 9
0:
b11 <
b11 @
b11 A
b10000011 B
b101000000 C
b11 D
b10000011 E
b111 G
b11000000100 H
b0 K
0M
0N
b0 O
b0 P
0Q
b0 R
b0 S
b0 W
0X
b11 \
b11 _
b10000011 `
b101000000 a
b0 e
b0 f
0g
0h
0|
b0 }
b0 ~
#250000
0!
00
#255000
1!
10
b1 9
b1 W
b0 e
b0 f
0g
0h
b111 i
b11000000100 j
b101011100101 n
b100011110011 o
b10000011100 p
b101011111010 q
b1000001110 r
b11000000100 s
b100011101100 t
b1010001010000100000100 u
b111 w
b100011110011 x
b111 z
#260000
0!
00
#265000
1!
10
b10 9
b101011101100 J
1L
1N
b11 O
b101011101100 P
1Q
b11 R
b101011101100 S
b10 W
b101011101100 e
b0 f
1g
0h
b101011100101 k
b101011101100 o
b1000100011 p
b10101110110 q
b11110010010 r
b101011100101 t
b101011101100 x
1|
b11 }
b101011101100 ~
#270000
0!
00
#275000
1!
10
b11 9
1:
b101011101100 G
b0 J
b1000100011 K
0L
1M
1N
b10000011 O
b1000100011 P
b10000011 R
b1000100011 S
b11 W
1X
b0 e
b1000100011 f
0g
1h
b1000100011 m
b11000000100 s
1|
b10000011 }
b1000100011 ~
#280000
0!
00
#285000
1!
10
b0 9
0:
b100 <
b100 @
b100 A
b10000100 B
b101000000 C
b100 D
b10000100 E
b101101011100 G
b100000000110 H
b0 K
0M
0N
b0 O
b0 P
0Q
b0 R
b0 S
b0 W
0X
b100 \
b100 _
b10000100 `
b101000000 a
b0 e
b0 f
0g
0h
0|
b0 }
b0 ~
#290000
0!
00
#295000
1!
10
b1 9
b1 W
b0 e
b0 f
0g
0h
b101101011100 i
b100000000110 j
b101001011100 n
b100101000000 o
b1110111 p
b10010100000 q
b11010111100 r
b100000000110 s
b101011100101 t
b1101100011000010000110 u
b101101011100 w
b1011001000001 x
b101101011100 z
#300000
0!
00
#305000
1!
10
b10 9
b100010110111 J
1L
1N
b100 O
b100010110111 P
1Q
b100 R
b100010110111 S
b10 W
b100010110111 e
b0 f
1g
0h
b101001011100 k
b100010110111 o
b100000000 p
b101011011100 q
b10000000 r
b101001011100 t
b1010110111000 x
1|
b100 }
b100010110111 ~
#310000
0!
00
#315000
1!
10
b11 9
1:
b100010110111 G
b0 J
b100000000 K
0L
1M
1N
b10000100 O
b100000000 P
b10000100 R
b100000000 S
b11 W
1X
b0 e
b100000000 f
0g
1h
b100000000 m
b100000000110 s
1|
b10000100 }
b100000000 ~
#320000
0!
00
#325000
1!
10
b0 9
0:
b101 <
b101 @
b101 A
b10000101 B
b101000000 C
b101 D
b10000101 E
b1010001001 G
b10100101100 H
b0 K
0M
0N
b0 O
b0 P
0Q
b0 R
b0 S
b0 W
0X
b101 \
b101 _
b10000101 `
b101000000 a
b0 e
b0 f
0g
0h
0|
b0 }
b0 ~
#330000
0!
00
#335000
1!
10
b1 9
b1 W
b0 e
b0 f
0g
0h
b1010001001 i
b10100101100 j
b100001111101 n
b110011100101 o
b10100101110 p
b110011110011 q
b1010010111 r
b10100101100 s
b101001011100 t
b1000101110111000101100 u
b1010001001 w
b110011100101 x
b1010001001 z
#340000
0!
00
#345000
1!
10
b10 9
b101100000110 J
1L
1N
b101 O
b101100000110 P
1Q
b101 R
b101100000110 S
b10 W
b101100000110 e
b0 f
1g
0h
b100001111101 k
b101100000110 o
b11100001101 p
b10110000011 q
b101000000111 r
b100001111101 t
b101100000110 x
1|
b101 }
b101100000110 ~
#350000
0!
00
#355000
1!
10
b11 9
1:
b101100000110 G
b0 J
b11100001101 K
0L
1M
1N
b10000101 O
b11100001101 P
b10000101 R
b11100001101 S
b11 W
1X
b0 e
b11100001101 f
0g
1h
b11100001101 m
b10100101100 s
1|
b10000101 }
b11100001101 ~
#360000
0!
00
#365000
1!
10
b0 9
0:
b110 <
b110 @
b110 A
b10000110 B
b101000000 C
b110 D
b10000110 E
b10111100001 G
b10010100011 H
b0 K
0M
0N
b0 O
b0 P
0Q
b0 R
b0 S
b0 W
0X
b110 \
b110 _
b10000110 `
b101000000 a
b0 e
b0 f
0g
0h
0|
b0 }
b0 ~
#370000
0!
00
#375000
1!
10
b1 9
b1 W
b0 e
b0 f
0g
0h
b10111100001 i
b10010100011 j
b11001111011 n
b101011101 o
b101001100101 p
b11100101111 q
b101110110011 r
b10010100011 s
b100001111101 t
b111110101000011100011 u
b10111100001 w
b111001011110 x
b10111100001 z
#380000
0!
00
#385000
1!
10
b10 9
b110001011100 J
1L
1N
b110 O
b110001011100 P
1Q
b110 R
b110001011100 S
b10 W
b110001011100 e
b0 f
1g
0h
b11001111011 k
b110001011100 o
b110001100111 p
b11000101110 q
b110010110100 r
b11001111011 t
b110001011100 x
1|
b110 }
b110001011100 ~
#390000
0!
00
#395000
1!
10
b11 9
1:
b110001011100 G
b0 J
b110001100111 K
0L
1M
1N
b10000110 O
b110001100111 P
b10000110 R
b110001100111 S
b11 W
1X
b0 e
b110001100111 f
0g
1h
b110001100111 m
b10010100011 s
1|
b10000110 }
b110001100111 ~
#400000
0!
00
#405000
1!
10
b0 9
0:
b111 <
b111 @
b111 A
b10000111 B
b101000000 C
b111 D
b10000111 E
b100000100101 G
b11110010111 H
b0 K
0M
0N
b0 O
b0 P
0Q
b0 R
b0 S
b0 W
0X
b111 \
b111 _
b10000111 `
b101000000 a
b0 e
b0 f
0g
0h
0|
b0 }
b0 ~
#410000
0!
00
#415000
1!
10
b1 9
b1 W
b0 e
b0 f
0g
0h
b100000100101 i
b11110010111 j
b111100110 n
b110011111 o
b110101010 p
b11101010000 q
b11010101 r
b11110010111 s
b11001111011 t
b1100110100001011010111 u
b100000100101 w
b111010100000 x
b100000100101 z
#420000
0!
00
#425000
1!
10
b10 9
b101000001011 J
1L
1N
b111 O
b101000001011 P
1Q
b111 R
b101000001011 S
b10 W
b101000001011 e
b0 f
1g
0h
b111100110 k
b101000001011 o
b11000111111 p
b101110000110 q
b100110100000 r
b111100110 t
b101000001011 x
1|
b111 }
b101000001011 ~
#430000
0!
00
#435000
1!
10
b11 9
1:
b101000001011 G
b0 J
b11000111111 K
0L
1M
1N
b10000111 O
b11000111111 P
b10000111 R
b11000111111 S
b11 W
1X
b0 e
b11000111111 f
0g
1h
b11000111111 m
b11110010111 s
1|
b10000111 }
b11000111111 ~
#440000
0!
00
#445000
1!
10
b0 9
0:
b1000 <
b1000 @
b1000 A
b10001000 B
b101000000 C
b1000 D
b10001000 E
b10000111110 G
b10100011010 H
b0 K
0M
0N
b0 O
b0 P
0Q
b0 R
b0 S
b0 W
0X
b1000 \
b1000 _
b10001000 `
b101000000 a
b0 e
b0 f
0g
0h
0|
b0 }
b0 ~
#450000
0!
00
#455000
1!
10
b1 9
b1 W
b0 e
b0 f
0g
0h
b10000111110 i
b10100011010 j
b1111110100 n
b11000100100 o
b1001011000 p
b1100010010 q
b100101100 r
b10100011010 s
b111100110 t
b1000100111010010011010 u
b10000111110 w
b11000100100 x
b10000111110 z
#460000
0!
00
#465000
1!
10
b10 9
b100000110010 J
1L
1N
b1000 O
b100000110010 P
1Q
b1000 R
b100000110010 S
b10 W
b100000110010 e
b0 f
1g
0h
b1111110100 k
b100000110010 o
b1001010 p
b10000011001 q
b100101 r
b1111110100 t
b100000110010 x
1|
b1000 }
b100000110010 ~
#470000
0!
00
#475000
1!
10
b11 9
1:
b100000110010 G
b0 J
b1001010 K
0L
1M
1N
b10001000 O
b1001010 P
b10001000 R
b1001010 S
b11 W
1X
b0 e
b1001010 f
0g
1h
b1001010 m
b10100011010 s
1|
b10001000 }
b1001010 ~
#480000
0!
00
#485000
1!
10
b0 9
0:
b1001 <
b1001 @
b1001 A
b10001001 B
b101000000 C
b1001 D
b10001001 E
b10010110110 G
b10001110001 H
b0 K
0M
0N
b0 O
b0 P
0Q
b0 R
b0 S
b0 W
0X
b1001 \
b1001 _
b10001001 `
b101000000 a
b0 e
b0 f
0g
0h
0|
b0 }
b0 ~
#490000
0!
00
#495000
1!
10
b1 9
b1 W
b0 e
b0 f
0g
0h
b10010110110 i
b10001110001 j
b11011100011 n
b100010101010 o
b11000010 p
b10001010101 q
b1100001 r
b10001110001 s
b1111110100 t
b111011111111100110001 u
b10010110110 w
b100010101010 x
b10010110110 z
#500000
0!
00
#505000
1!
10
b10 9
b101110011001 J
1L
1N
b1001 O
b101110011001 P
1Q
b1001 R
b101110011001 S
b10 W
b101110011001 e
b0 f
1g
0h
b11011100011 k
b101110011001 o
b101011010100 p
b110001001101 q
b10101101010 r
b11011100011 t
b101110011001 x
1|
b1001 }
b101110011001 ~
#510000
0!
00
#515000
1!
10
b11 9
1:
b101110011001 G
b0 J
b101011010100 K
0L
1M
1N
b10001001 O
b101011010100 P
b10001001 R
b101011010100 S
b11 W
1X
b0 e
b101011010100 f
0g
1h
b101011010100 m
b10001110001 s
1|
b10001001 }
b101011010100 ~
#520000
0!
00
#525000
1!
10
b0 9
0:
b1010 <
b1010 @
b1010 A
b10001010 B
b101000000 C
b1010 D
b10001010 E
b11100010011 G
b10000111101 H
b0 K
0M
0N
b0 O
b0 P
0Q
b0 R
b0 S
b0 W
0X
b1010 \
b1010 _
b10001010 `
b101000000 a
b0 e
b0 f
0g
0h
0|
b0 }
b0 ~
#530000
0!
00
#535000
1!
10
b1 9
b1 W
b0 e
b0 f
0g
0h
b11100010011 i
b10000111101 j
b11011001010 n
b11110101 o
b110000 p
b11011111011 q
b11000 r
b10000111101 s
b11011100011 t
b111001001111111111101 u
b11100010011 w
b110111110110 x
b11100010011 z
#540000
0!
00
#545000
1!
10
b10 9
b11011100 J
1L
1N
b1010 O
b11011100 P
1Q
b1010 R
b11011100 S
b10 W
b11011100 e
b0 f
1g
0h
b11011001010 k
b11011100 o
b1001001 p
b1101110 q
b11010100101 r
b11011001010 t
b110111011101 x
1|
b1010 }
b11011100 ~
#550000
0!
00
#555000
1!
10
b11 9
1:
b11011100 G
b0 J
b1001001 K
0L
1M
1N
b10001010 O
b1001001 P
b10001010 R
b1001001 S
b11 W
1X
b0 e
b1001001 f
0g
1h
b1001001 m
b10000111101 s
1|
b10001010 }
b1001001 ~
#560000
0!
00
#565000
1!
10
b0 9
0:
b1011 <
b1011 @
b1011 A
b10001011 B
b101000000 C
b1011 D
b10001011 E
b1111100000 G
b10000011100 H
b0 K
0M
0N
b0 O
b0 P
0Q
b0 R
b0 S
b0 W
0X
b1011 \
b1011 _
b10001011 `
b101000000 a
b0 e
b0 f
0g
0h
0|
b0 }
b0 ~
#570000
0!
00
#575000
1!
10
b1 9
b1 W
b0 e
b0 f
0g
0h
b1111100000 i
b10000011100 j
b10011111010 n
b101010101010 o
b101000010111 p
b10101010101 q
b101110001100 r
b10000011100 s
b11011001010 t
b110111100000100011100 u
b1111100000 w
b101010101010 x
b1111100000 z
#580000
0!
00
#585000
1!
10
b10 9
b100011011010 J
1L
1N
b1011 O
b100011011010 P
1Q
b1011 R
b100011011010 S
b10 W
b100011011010 e
b0 f
1g
0h
b10011111010 k
b100011011010 o
b101111100111 p
b10001101101 q
b110001110100 r
b10011111010 t
b100011011010 x
1|
b1011 }
b100011011010 ~
#590000
0!
00
#595000
1!
10
b11 9
1:
b100011011010 G
b0 J
b101111100111 K
0L
1M
1N
b10001011 O
b101111100111 P
b10001011 R
b101111100111 S
b11 W
1X
b0 e
b101111100111 f
0g
1h
b101111100111 m
b10000011100 s
1|
b10001011 }
b101111100111 ~
#600000
0!
00
#605000
1!
10
b0 9
0:
b1100 <
b1100 @
b1100 A
b10001100 B
b101000000 C
b1100 D
b10001100 E
b1011110111 G
b100001001101 H
b0 K
0M
0N
b0 O
b0 P
0Q
b0 R
b0 S
b0 W
0X
b1100 \
b1100 _
b10001100 `
b101000000 a
b0 e
b0 f
0g
0h
0|
b0 }
b0 ~
#610000
0!
00
#615000
1!
10
b1 9
b1 W
b0 e
b0 f
0g
0h
b1011110111 i
b100001001101 j
b100010111110 n
b11111110001 o
b101011111110 p
b101001111001 q
b10101111111 r
b100001001101 s
b10011111010 t
b1110000001000000001101 u
b1011110111 w
b11111110001 x
b1011110111 z
#620000
0!
00
#625000
1!
10
b10 9
b101110110101 J
1L
1N
b1100 O
b101110110101 P
1Q
b1100 R
b101110110101 S
b10 W
b101110110101 e
b0 f
1g
0h
b100010111110 k
b101110110101 o
b11100111010 p
b110001011011 q
b1110011101 r
b100010111110 t
b101110110101 x
1|
b1100 }
b101110110101 ~
#630000
0!
00
#635000
1!
10
b11 9
1:
b101110110101 G
b0 J
b11100111010 K
0L
1M
1N
b10001100 O
b11100111010 P
b10001100 R
b11100111010 S
b11 W
1X
b0 e
b11100111010 f
0g
1h
b11100111010 m
b100001001101 s
1|
b10001100 }
b11100111010 ~
#640000
0!
00
#645000
1!
10
b0 9
0:
b1101 <
b1101 @
b1101 A
b10001101 B
b101000000 C
b1101 D
b10001101 E
b11001110000 G
b110011011110 H
b0 K
0M
0N
b0 O
b0 P
0Q
b0 R
b0 S
b0 W
0X
b1101 \
b1101 _
b10001101 `
b101000000 a
b0 e
b0 f
0g
0h
0|
b0 }
b0 ~
#650000
0!
00
#655000
1!
10
b1 9
b1 W
b0 e
b0 f
0g
0h
b11001110000 i
b110011011110 j
b101010110000 n
b1000101101 o
b101010110011 p
b11110010111 q
b101111011010 r
b110011011110 s
b100010111110 t
b10101101110011101011110 u
b11001110000 w
b111100101110 x
b11001110000 z
#660000
0!
00
#665000
1!
10
b10 9
b10000011111 J
1L
1N
b1101 O
b10000011111 P
1Q
b1101 R
b10000011111 S
b10 W
b10000011111 e
b0 f
1g
0h
b101010110000 k
b10000011111 o
b100011000001 p
b100010010000 q
b101011100001 r
b101010110000 t
b1000100100000 x
1|
b1101 }
b10000011111 ~
#670000
0!
00
#675000
1!
10
b11 9
1:
b10000011111 G
b0 J
b100011000001 K
0L
1M
1N
b10001101 O
b100011000001 P
b10001101 R
b100011000001 S
b11 W
1X
b0 e
b100011000001 f
0g
1h
b100011000001 m
b110011011110 s
1|
b10001101 }
b100011000001 ~
#680000
0!
00
#685000
1!
10
b0 9
0:
b1110 <
b1110 @
b1110 A
b10001110 B
b101000000 C
b1110 D
b10001110 E
b100100010100 G
b1100001111 H
b0 K
0M
0N
b0 O
b0 P
0Q
b0 R
b0 S
b0 W
0X
b1110 \
b1110 _
b10001110 `
b101000000 a
b0 e
b0 f
0g
0h
0|
b0 }
b0 ~
#690000
0!
00
#695000
1!
10
b1 9
b1 W
b0 e
b0 f
0g
0h
b100100010100 i
b1100001111 j
b100010111001 n
b11011000011 o
b101101100101 p
b100111100010 q
b110000110011 r
b1100001111 s
b101010110000 t
b101001010100001001111 u
b100100010100 w
b1001111000100 x
b100100010100 z
#700000
0!
00
#705000
1!
10
b10 9
b10011001100 J
1L
1N
b1110 O
b10011001100 P
1Q
b1110 R
b10011001100 S
b10 W
b10011001100 e
b0 f
1g
0h
b100010111001 k
b10011001100 o
b1011011 p
b1001100110 q
b11010101110 r
b100010111001 t
b1000111001101 x
1|
b1110 }
b10011001100 ~
#710000
0!
00
#715000
1!
10
b11 9
1:
b10011001100 G
b0 J
b1011011 K
0L
1M
1N
b10001110 O
b1011011 P
b10001110 R
b1011011 S
b11 W
1X
b0 e
b1011011 f
0g
1h
b1011011 m
b1100001111 s
1|
b10001110 }
b1011011 ~
#720000
0!
00
#725000
1!
10
b0 9
0:
b1111 <
b1111 @
b1111 A
b10001111 B
b101000000 C
b1111 D
b10001111 E
b10110010001 G
b11001010001 H
b0 K
0M
0N
b0 O
b0 P
0Q
b0 R
b0 S
b0 W
0X
b1111 \
b1111 _
b10001111 `
b101000000 a
b0 e
b0 f
0g
0h
0|
b0 }
b0 ~
#730000
0!
00
#735000
1!
10
b1 9
b1 W
b0 e
b0 f
0g
0h
b10110010001 i
b11001010001 j
b101011001010 n
b101001001 o
b100111011001 p
b11100100101 q
b101101101101 r
b11001010001 s
b100010111001 t
b1010101010100100010001 u
b10110010001 w
b111001001010 x
b10110010001 z
#740000
0!
00
#745000
1!
10
b10 9
b1101011010 J
1L
1N
b1111 O
b1101011010 P
1Q
b1111 R
b1101011010 S
b10 W
b1101011010 e
b0 f
1g
0h
b101011001010 k
b1101011010 o
b11111001000 p
b110101101 q
b1111100100 r
b101011001010 t
b1000001011011 x
1|
b1111 }
b1101011010 ~
#750000
0!
00
#755000
1!
10
b11 9
1:
b1101011010 G
b0 J
b11111001000 K
0L
1M
1N
b10001111 O
b11111001000 P
b10001111 R
b11111001000 S
b11 W
1X
b0 e
b11111001000 f
0g
1h
b11111001000 m
b11001010001 s
1|
b10001111 }
b11111001000 ~
#760000
0!
00
#765000
1!
10
b0 9
0:
b10000 <
b10000 @
b10000 A
b10010000 B
b101000000 C
b10000 D
b10010000 E
b1111011111 G
b10011111001 H
b0 K
0M
0N
b0 O
b0 P
0Q
b0 R
b0 S
b0 W
0X
b10000 \
b10000 _
b10010000 `
b101000000 a
b0 e
b0 f
0g
0h
0|
b0 }
b0 ~
#770000
0!
00
#775000
1!
10
b1 9
b1 W
b0 e
b0 f
0g
0h
b1111011111 i
b10011111001 j
b1000100100 n
b110101000 o
b11000010110 p
b11010100 q
b1100001011 r
b10011111001 s
b101011001010 t
b1000011001010110111001 u
b1111011111 w
b111010101001 x
b1111011111 z
#780000
0!
00
#785000
1!
10
b10 9
b11000000011 J
1L
1N
b10000 O
b11000000011 P
1Q
b10000 R
b11000000011 S
b10 W
b11000000011 e
b0 f
1g
0h
b1000100100 k
b11000000011 o
b110111011 p
b100110000010 q
b11101011110 r
b1000100100 t
b11000000011 x
1|
b10000 }
b11000000011 ~
#790000
0!
00
#795000
1!
10
b11 9
1:
b11000000011 G
b0 J
b110111011 K
0L
1M
1N
b10010000 O
b110111011 P
b10010000 R
b110111011 S
b11 W
1X
b0 e
b110111011 f
0g
1h
b110111011 m
b10011111001 s
1|
b10010000 }
b110111011 ~
#800000
0!
00
#805000
1!
10
b0 9
0:
b10001 <
b10001 @
b10001 A
b10010001 B
b101000000 C
b10001 D
b10010001 E
b110001111100 G
b1111111011 H
b0 K
0M
0N
b0 O
b0 P
0Q
b0 R
b0 S
b0 W
0X
b10001 \
b10001 _
b10010001 `
b101000000 a
b0 e
b0 f
0g
0h
0|
b0 }
b0 ~
#810000
0!
00
