ntt_verilog_codes/NTT/NTT.sim/sim_1/behav/xsim/ntt_waves.vcd
$date
   Wed Apr 29 03:44:38 2026
$end
$version
  2020.2
$end
$timescale
  1ps
$end
$scope module tb_ntt_top $end
$var reg 1 ! clk $end
$var reg 1 " reset $end
$var reg 1 # start $end
$var reg 1 $ mode $end
$var reg 1 % ext_coeff_we $end
$var reg 8 & ext_coeff_waddr [7:0] $end
$var reg 12 ' ext_coeff_wdata [11:0] $end
$var reg 8 ( ext_coeff_raddr [7:0] $end
$var wire 12 ) ext_coeff_rdata [11:0] $end
$var wire 1 * busy $end
$var wire 1 + done $end
$var integer 32 , total_tests $end
$var integer 32 - passed_tests $end
$scope module uut $end
$var wire 1 . clk $end
$var wire 1 / reset $end
$var wire 1 0 start $end
$var wire 1 1 mode $end
$var wire 1 2 ext_coeff_we $end
$var wire 8 3 ext_coeff_waddr [7:0] $end
$var wire 12 4 ext_coeff_wdata [11:0] $end
$var wire 8 5 ext_coeff_raddr [7:0] $end
$var wire 12 ) ext_coeff_rdata [11:0] $end
$var wire 1 * busy $end
$var wire 1 + done $end
$var wire 1 6 butterfly_enable $end
$var wire 2 7 phase [1:0] $end
$var wire 1 8 advance_step $end
$var wire 1 9 addr_done $end
$var wire 10 : counter [9:0] $end
$var wire 1 ; addr_active $end
$var wire 3 < stage_raw [2:0] $end
$var wire 3 = stage_eff [2:0] $end
$var wire 7 > step_idx [6:0] $end
$var wire 9 ? addr_a_raw [8:0] $end
$var wire 9 @ addr_b_raw [8:0] $end
$var wire 9 A addr_tw_raw [8:0] $end
$var wire 8 B coeff_addr_a [7:0] $end
$var wire 8 C coeff_addr_b [7:0] $end
$var wire 7 D tw_addr [6:0] $end
$var wire 12 E coeff_rd_a [11:0] $end
$var wire 12 F coeff_rd_b [11:0] $end
$var wire 12 G tw_data [11:0] $end
$var wire 12 H bf_out_a [11:0] $end
$var wire 12 I bf_out_b [11:0] $end
$var wire 1 J bf_valid_a $end
$var wire 1 K bf_valid_b $end
$var wire 1 L core_wr_en $end
$var wire 8 M core_wr_addr [7:0] $end
$var wire 12 N core_wr_data [11:0] $end
$var wire 1 O coeff_wr_en $end
$var wire 8 P coeff_wr_addr [7:0] $end
$var wire 12 Q coeff_wr_data [11:0] $end
$scope module u_ntt_controller $end
$var wire 1 . clk $end
$var wire 1 / reset $end
$var wire 1 0 start $end
$var wire 1 9 addr_done $end
$var reg 1 R busy $end
$var reg 1 S done $end
$var reg 1 T butterfly_enable $end
$var reg 2 U phase [1:0] $end
$var reg 1 V advance_step $end
$var reg 1 W state $end
$var parameter 0 X IDLE $end
$var parameter 0 Y RUN $end
$upscope $end
$scope module u_addr_gen $end
$var wire 1 . clk $end
$var wire 1 / reset $end
$var wire 1 0 start $end
$var wire 1 1 mode $end
$var wire 1 8 advance_step $end
$var reg 10 Z counter [9:0] $end
$var reg 1 [ active $end
$var reg 1 \ done $end
$var wire 3 < stage_raw [2:0] $end
$var wire 3 = stage_eff [2:0] $end
$var wire 7 > step_idx [6:0] $end
$var reg 9 ] addr_a_raw [8:0] $end
$var reg 9 ^ addr_b_raw [8:0] $end
$var reg 9 _ addr_tw_raw [8:0] $end
$var wire 3 ` stage_xor [2:0] $end
$var parameter 10 a LAST_COUNT [9:0] $end
$upscope $end
$scope module u_coeff_mem $end
$var wire 1 . clk $end
$var wire 8 B addr_a [7:0] $end
$var wire 12 E rd_data_a [11:0] $end
$var wire 8 C addr_b [7:0] $end
$var wire 12 F rd_data_b [11:0] $end
$var wire 8 5 addr_ext [7:0] $end
$var wire 12 ) rd_data_ext [11:0] $end
$var wire 1 O wr_en $end
$var wire 8 P wr_addr [7:0] $end
$var wire 12 Q wr_data [11:0] $end
$upscope $end
$scope module u_twiddle_mem $end
$var wire 1 1 mode $end
$var wire 7 D addr_tw [6:0] $end
$var wire 12 G tw_data [11:0] $end
$var wire 8 b actual_addr [7:0] $end
$upscope $end
$scope module u_butterfly_core $end
$var wire 1 . clk $end
$var wire 1 / reset $end
$var wire 1 6 enable $end
$var wire 1 1 mode $end
$var wire 2 7 phase [1:0] $end
$var wire 12 E a_in [11:0] $end
$var wire 12 F b_in [11:0] $end
$var wire 12 G tw_in [11:0] $end
$var reg 12 c out_a [11:0] $end
$var reg 12 d out_b [11:0] $end
$var reg 1 e valid_a $end
$var reg 1 f valid_b $end
$var reg 12 g reg_a [11:0] $end
$var reg 12 h reg_b [11:0] $end
$var reg 12 i reg_mul [11:0] $end
$var reg 12 j reg_sum [11:0] $end
$var reg 12 k reg_diff [11:0] $end
$var wire 12 l mul_res [11:0] $end
$var wire 12 m sum_res [11:0] $end
$var wire 12 n diff_res [11:0] $end
$var wire 12 o mult_in_a [11:0] $end
$var wire 12 p add_sub_in_b [11:0] $end
$scope module u_mod_mult_red $end
$var wire 12 o a [11:0] $end
$var wire 12 G b [11:0] $end
$var wire 12 l y [11:0] $end
$var wire 24 q prod_full [23:0] $end
$var parameter 0 r Q $end
$upscope $end
$scope module u_mod_add $end
$var wire 12 s a [11:0] $end
$var wire 12 p b [11:0] $end
$var wire 12 m y [11:0] $end
$var wire 13 t sum_full [12:0] $end
$var parameter 12 u Q [11:0] $end
$upscope $end
$scope module u_mod_sub $end
$var wire 12 v a [11:0] $end
$var wire 12 p b [11:0] $end
$var wire 12 n y [11:0] $end
$var parameter 12 w Q [11:0] $end
$upscope $end
$upscope $end
$scope module u_writeback_mux $end
$var wire 8 B addr_a [7:0] $end
$var wire 8 C addr_b [7:0] $end
$var wire 12 H out_a [11:0] $end
$var wire 12 I out_b [11:0] $end
$var wire 1 J valid_a $end
$var wire 1 K valid_b $end
$var reg 1 x wr_en $end
$var reg 8 y wr_addr [7:0] $end
$var reg 12 z wr_data [11:0] $end
$upscope $end
$upscope $end
$scope task run_test_case $end
$var integer 32 { test_num $end
$var reg 1 | test_mode $end
$var integer 32 } i $end
$var integer 32 ~ errors $end
$upscope $end
$upscope $end
$enddefinitions $end
#0
$dumpvars
0!
1"
0#
0$
0%
b0 &
b0 '
b0 (
bx )
0*
0+
b0 ,
b0 -
0.
1/
00
01
02
b0 3
b0 4
b0 5
06
b0 7
08
09
b0 :
0;
b0 <
b0 =
b0 >
b0 ?
b10000000 @
b101000000 A
b0 B
b10000000 C
b1000000 D
bx E
bx F
b11011000001 G
b0 H
b0 I
0J
0K
0L
b0 M
b0 N
0O
b0 P
b0 Q
0R
0S
0T
b0 U
0V
0W
0X
1Y
b0 Z
0[
0\
b0 ]
b10000000 ^
b101000000 _
b111 `
b1101111111 a
b1000000 b
b0 c
b0 d
0e
0f
b0 g
b0 h
b0 i
b0 j
b0 k
b0 l
b0 m
b0 n
b0 o
b0 p
b0 q
b110100000001 r
b0 s
b0 t
b110100000001 u
b0 v
b110100000001 w
0x
b0 y
b0 z
bx {
x|
bx }
bx ~
$end
#5000
1!
1.
#10000
0!
0.
#15000
1!
1.
#20000
0!
0.
#25000
1!
1.
#30000
0!
0.
#35000
1!
1.
#40000
0!
0.
#45000
1!
1.
#50000
0!
0.
#55000
1!
1.
#60000
0!
0.
#65000
1!
1.
#70000
0!
0.
#75000
1!
1.
#80000
0!
0.
#85000
1!
1.
#90000
0!
0.
#95000
1!
1.
#100000
0!
0"
0.
0/
#105000
1!
1.
#110000
0!
0.
#115000
1!
1.
#120000
0!
b1010101010 )
0.
b1010101010 E
b101010101100 F
b1 {
0|
b0 ~
#125000
1!
1#
1*
1.
10
16
1;
1R
1T
1W
1[
b0 c
b0 d
0e
0f
#130000
0!
0.
#135000
1!
0#
1.
00
b1 7
b1 U
b0 c
b0 d
0e
0f
b1010101010 g
b101010101100 h
b110000100010 l
b1010101010 m
b1010101010 n
b101010101100 o
b0 p
b10010000001001110101100 q
b1010101010 s
b1010101010 t
b1010101010 v
#140000
0!
0.
#145000
1!
1.
b10 7
b111001011 H
1J
1L
b111001011 N
1O
b111001011 Q
b10 U
b111001011 c
b0 d
1e
0f
b110000100010 i
b111001011 m
b1110001001 n
b110000100010 p
b111011001100 t
1x
b0 y
b111001011 z
#150000
0!
0.
#155000
1!
b111001011 )
1.
b11 7
18
b111001011 E
b0 H
b1110001001 I
0J
1K
1L
b10000000 M
b1110001001 N
b10000000 P
b1110001001 Q
b11 U
1V
b0 c
b1110001001 d
0e
1f
b1110001001 k
b101010101100 o
1x
b10000000 y
b1110001001 z
#160000
0!
0.
#165000
1!
1.
b0 7
08
b1 :
b1 >
b1 ?
b10000001 @
b101000000 A
b1 B
b10000001 C
b11101111 E
b11001000001 F
b0 I
0K
0L
b0 M
b0 N
0O
b0 P
b0 Q
b0 U
0V
b1 Z
b1 ]
b10000001 ^
b101000000 _
b0 c
b0 d
0e
0f
0x
b0 y
b0 z
#170000
0!
0.
#175000
1!
1.
b1 7
b1 U
b0 c
b0 d
0e
0f
b11101111 g
b11001000001 h
b11011000010 l
b10000 m
b111001110 n
b11001000001 o
b110000100010 p
b1010100011110100000001 q
b11101111 s
b110100010001 t
b11101111 v
#180000
0!
0.
#185000
1!
1.
b10 7
b11110110001 H
1J
1L
b1 M
b11110110001 N
1O
b1 P
b11110110001 Q
b10 U
b11110110001 c
b0 d
1e
0f
b11011000010 i
b11110110001 m
b11100101110 n
b11011000010 p
b11110110001 t
1x
b1 y
b11110110001 z
#190000
0!
0.
#195000
1!
1.
b11 7
18
b11110110001 E
b0 H
b11100101110 I
0J
1K
1L
b10000001 M
b11100101110 N
b10000001 P
b11100101110 Q
b11 U
1V
b0 c
b11100101110 d
0e
1f
b11100101110 k
b11001000001 o
1x
b10000001 y
b11100101110 z
#200000
0!
0.
#205000
1!
1.
b0 7
08
b10 :
b10 >
b10 ?
b10000010 @
b101000000 A
b10 B
b10000010 C
b101111000000 E
b100100000110 F
b0 I
0K
0L
b0 M
b0 N
0O
b0 P
b0 Q
b0 U
0V
b10 Z
b10 ]
b10000010 ^
b101000000 _
b0 c
b0 d
0e
0f
0x
b0 y
b0 z
#210000
0!
0.
#215000
1!
1.
b1 7
b1 U
b0 c
b0 d
0e
0f
b101111000000 g
b100100000110 h
b100111010111 l
b10110000001 m
b10011111110 n
b100100000110 o
b11011000010 p
b1111001111000110000110 q
b101111000000 s
b1001010000010 t
b101111000000 v
#220000
0!
0.
#225000
1!
1.
b10 7
b100010010110 H
1J
1L
b10 M
b100010010110 N
1O
b10 P
b100010010110 Q
b10 U
b100010010110 c
b0 d
1e
0f
b100111010111 i
b100010010110 m
b111101001 n
b100111010111 p
b1010110010111 t
1x
b10 y
b100010010110 z
#230000
0!
0.
#235000
1!
1.
b11 7
18
b100010010110 E
b0 H
b111101001 I
0J
1K
1L
b10000010 M
b111101001 N
b10000010 P
b111101001 Q
b11 U
1V
b0 c
b111101001 d
0e
1f
b111101001 k
b100100000110 o
1x
b10000010 y
b111101001 z
#240000
0!
0.
#245000
1!
1.
b0 7
08
b11 :
b11 >
b11 ?
b10000011 @
b101000000 A
b11 B
b10000011 C
b110000110011 E
b100011100010 F
b0 I
0K
0L
b0 M
b0 N
0O
b0 P
b0 Q
b0 U
0V
b11 Z
b11 ]
b10000011 ^
b101000000 _
b0 c
b0 d
0e
0f
0x
b0 y
b0 z
#250000
0!
0.
#255000
1!
1.
b1 7
b1 U
b0 c
b0 d
0e
0f
b110000110011 g
b100011100010 h
b11000101 l
b100100001001 m
b1001011100 n
b100011100010 o
b100111010111 p
b1110111111111001100010 q
b110000110011 s
b1011000001010 t
b110000110011 v
#260000
0!
0.
#265000
1!
1.
b10 7
b110011111000 H
1J
1L
b11 M
b110011111000 N
1O
b11 P
b110011111000 Q
b10 U
b110011111000 c
b0 d
1e
0f
b11000101 i
b110011111000 m
b101101101110 n
b11000101 p
b110011111000 t
1x
b11 y
b110011111000 z
#270000
0!
0.
#275000
1!
1.
b11 7
18
b110011111000 E
b0 H
b101101101110 I
0J
1K
1L
b10000011 M
b101101101110 N
b10000011 P
b101101101110 Q
b11 U
1V
b0 c
b101101101110 d
0e
1f
b101101101110 k
b100011100010 o
1x
b10000011 y
b101101101110 z
#280000
0!
0.
#285000
1!
1.
b0 7
08
b100 :
b100 >
b100 ?
b10000100 @
b101000000 A
b100 B
b10000100 C
b110001000011 E
b101110001110 F
b0 I
0K
0L
b0 M
b0 N
0O
b0 P
b0 Q
b0 U
0V
b100 Z
b100 ]
b10000100 ^
b101000000 _
b0 c
b0 d
0e
0f
0x
b0 y
b0 z
#290000
0!
0.
#295000
1!
1.
b1 7
b1 U
b0 c
b0 d
0e
0f
b110001000011 g
b101110001110 h
b10000001110 l
b111 m
b101101111110 n
b101110001110 o
b11000101 p
b10011100000101000001110 q
b110001000011 s
b110100001000 t
b110001000011 v
#300000
0!
0.
#305000
1!
1.
b10 7
b1101010000 H
1J
1L
b100 M
b1101010000 N
1O
b100 P
b1101010000 Q
b10 U
b1101010000 c
b0 d
1e
0f
b10000001110 i
b1101010000 m
b100000110101 n
b10000001110 p
b1000001010001 t
1x
b100 y
b1101010000 z
#310000
0!
0.
#315000
1!
1.
b11 7
18
b1101010000 E
b0 H
b100000110101 I
0J
1K
1L
b10000100 M
b100000110101 N
b10000100 P
b100000110101 Q
b11 U
1V
b0 c
b100000110101 d
0e
1f
b100000110101 k
b101110001110 o
1x
b10000100 y
b100000110101 z
#320000
0!
0.
#325000
1!
1.
b0 7
08
b101 :
b101 >
b101 ?
b10000101 @
b101000000 A
b101 B
b10000101 C
b101011111000 E
b1111001010 F
b0 I
0K
0L
b0 M
b0 N
0O
b0 P
b0 Q
b0 U
0V
b101 Z
b101 ]
b10000101 ^
b101000000 _
b0 c
b0 d
0e
0f
0x
b0 y
b0 z
#330000
0!
0.
#335000
1!
1.
b1 7
b1 U
b0 c
b0 d
0e
0f
b101011111000 g
b1111001010 h
b101001010011 l
b1000000101 m
b11011101010 n
b1111001010 o
b10000001110 p
b110011001011101001010 q
b101011111000 s
b111100000110 t
b101011111000 v
#340000
0!
0.
#345000
1!
1.
b10 7
b100001001010 H
1J
1L
b101 M
b100001001010 N
1O
b101 P
b100001001010 Q
b10 U
b100001001010 c
b0 d
1e
0f
b101001010011 i
b100001001010 m
b10100101 n
b101001010011 p
b1010101001011 t
1x
b101 y
b100001001010 z
#350000
0!
0.
#355000
1!
1.
b11 7
18
b100001001010 E
b0 H
b10100101 I
0J
1K
1L
b10000101 M
b10100101 N
b10000101 P
b10100101 Q
b11 U
1V
b0 c
b10100101 d
0e
1f
b10100101 k
b1111001010 o
1x
b10000101 y
b10100101 z
#360000
0!
0.
#365000
1!
1.
b0 7
08
b110 :
b110 >
b110 ?
b10000110 @
b101000000 A
b110 B
b10000110 C
b11000110100 E
b110000110110 F
b0 I
0K
0L
b0 M
b0 N
0O
b0 P
b0 Q
b0 U
0V
b110 Z
b110 ]
b10000110 ^
b101000000 _
b0 c
b0 d
0e
0f
0x
b0 y
b0 z
#370000
0!
0.
#375000
1!
1.
b1 7
b1 U
b0 c
b0 d
0e
0f
b11000110100 g
b110000110110 h
b11101011111 l
b1110000110 m
b100011100010 n
b110000110110 o
b101001010011 p
b10100100111100010110110 q
b11000110100 s
b1000010000111 t
b11000110100 v
#380000
0!
0.
#385000
1!
1.
b10 7
b10010010 H
1J
1L
b110 M
b10010010 N
1O
b110 P
b10010010 Q
b10 U
b10010010 c
b0 d
1e
0f
b11101011111 i
b10010010 m
b101111010110 n
b11101011111 p
b110110010011 t
1x
b110 y
b10010010 z
#390000
0!
0.
#395000
1!
1.
b11 7
18
b10010010 E
b0 H
b101111010110 I
0J
1K
1L
b10000110 M
b101111010110 N
b10000110 P
b101111010110 Q
b11 U
1V
b0 c
b101111010110 d
0e
1f
b101111010110 k
b110000110110 o
1x
b10000110 y
b101111010110 z
#400000
0!
0.
#405000
1!
1.
b0 7
08
b111 :
b111 >
b111 ?
b10000111 @
b101000000 A
b111 B
b10000111 C
b110001100001 E
b11111110101 F
b0 I
0K
0L
b0 M
b0 N
0O
b0 P
b0 Q
b0 U
0V
b111 Z
b111 ]
b10000111 ^
b101000000 _
b0 c
b0 d
0e
0f
0x
b0 y
b0 z
#410000
0!
0.
#415000
1!
1.
b1 7
b1 U
b0 c
b0 d
0e
0f
b110001100001 g
b11111110101 h
b110010010100 l
b11010111111 m
b10100000010 n
b11111110101 o
b11101011111 p
b1101011011110110110101 q
b110001100001 s
b1001111000000 t
b110001100001 v
#420000
0!
0.
#425000
1!
1.
b10 7
b101111110100 H
1J
1L
b111 M
b101111110100 N
1O
b111 P
b101111110100 Q
b10 U
b101111110100 c
b0 d
1e
0f
b110010010100 i
b101111110100 m
b110011001110 n
b110010010100 p
b1100011110101 t
1x
b111 y
b101111110100 z
#430000
0!
0.
#435000
1!
1.
b11 7
18
b101111110100 E
b0 H
b110011001110 I
0J
1K
1L
b10000111 M
b110011001110 N
b10000111 P
b110011001110 Q
b11 U
1V
b0 c
b110011001110 d
0e
1f
b110011001110 k
b11111110101 o
1x
b10000111 y
b110011001110 z
#440000
0!
0.
#445000
1!
1.
b0 7
08
b1000 :
b1000 >
b1000 ?
b10001000 @
b101000000 A
b1000 B
b10001000 C
b1010111100 E
b110000100100 F
b0 I
0K
0L
b0 M
b0 N
0O
b0 P
b0 Q
b0 U
0V
b1000 Z
b1000 ]
b10001000 ^
b101000000 _
b0 c
b0 d
0e
0f
0x
b0 y
b0 z
#450000
0!
0.
#455000
1!
1.
b1 7
b1 U
b0 c
b0 d
0e
0f
b1010111100 g
b110000100100 h
b1011010110 l
b1001001111 m
b1100101001 n
b110000100100 o
b110010010100 p
b10100011111111100100100 q
b1010111100 s
b111101010000 t
b1010111100 v
#460000
0!
0.
#465000
1!
1.
b10 7
b10110010010 H
1J
1L
b1000 M
b10110010010 N
1O
b1000 P
b10110010010 Q
b10 U
b10110010010 c
b0 d
1e
0f
b1011010110 i
b10110010010 m
b110011100111 n
b1011010110 p
b10110010010 t
1x
b1000 y
b10110010010 z
#470000
0!
0.
#475000
1!
1.
b11 7
18
b10110010010 E
b0 H
b110011100111 I
0J
1K
1L
b10001000 M
b110011100111 N
b10001000 P
b110011100111 Q
b11 U
1V
b0 c
b110011100111 d
0e
1f
b110011100111 k
b110000100100 o
1x
b10001000 y
b110011100111 z
#480000
0!
0.
#485000
1!
1.
b0 7
08
b1001 :
b1001 >
b1001 ?
b10001001 @
b101000000 A
b1001 B
b10001001 C
b110001101100 E
b100010010011 F
b0 I
0K
0L
b0 M
b0 N
0O
b0 P
b0 Q
b0 U
0V
b1001 Z
b1001 ]
b10001001 ^
b101000000 _
b0 c
b0 d
0e
0f
0x
b0 y
b0 z
#490000
0!
0.
#495000
1!
1.
b1 7
b1 U
b0 c
b0 d
0e
0f
b110001101100 g
b100010010011 h
b1011111 l
b1001000001 m
b100110010110 n
b100010010011 o
b1011010110 p
b1110011110100011010011 q
b110001101100 s
b111101000010 t
b110001101100 v
#500000
0!
0.
#505000
1!
1.
b10 7
b110011001011 H
1J
1L
b1001 M
b110011001011 N
1O
b1001 P
b110011001011 Q
b10 U
b110011001011 c
b0 d
1e
0f
b1011111 i
b110011001011 m
b110000001101 n
b1011111 p
b110011001011 t
1x
b1001 y
b110011001011 z
#510000
0!
0.
#515000
1!
1.
b11 7
18
b110011001011 E
b0 H
b110000001101 I
0J
1K
1L
b10001001 M
b110000001101 N
b10001001 P
b110000001101 Q
b11 U
1V
b0 c
b110000001101 d
0e
1f
b110000001101 k
b100010010011 o
1x
b10001001 y
b110000001101 z
#520000
0!
0.
#525000
1!
1.
b0 7
08
b1010 :
b1010 >
b1010 ?
b10001010 @
b101000000 A
b1010 B
b10001010 C
b10001000110 E
b10111000111 F
b0 I
0K
0L
b0 M
b0 N
0O
b0 P
b0 Q
b0 U
0V
b1010 Z
b1010 ]
b10001010 ^
b101000000 _
b0 c
b0 d
0e
0f
0x
b0 y
b0 z
#530000
0!
0.
#535000
1!
1.
b1 7
b1 U
b0 c
b0 d
0e
0f
b10001000110 g
b10111000111 h
b1000000111 l
b10010100101 m
b1111100111 n
b10111000111 o
b1011111 p
b1001110000010100000111 q
b10001000110 s
b10010100101 t
b10001000110 v
#540000
0!
0.
#545000
1!
1.
b10 7
b11001001101 H
1J
1L
b1010 M
b11001001101 N
1O
b1010 P
b11001001101 Q
b10 U
b11001001101 c
b0 d
1e
0f
b1000000111 i
b11001001101 m
b1000111111 n
b1000000111 p
b11001001101 t
1x
b1010 y
b11001001101 z
#550000
0!
0.
#555000
1!
1.
b11 7
18
b11001001101 E
b0 H
b1000111111 I
0J
1K
1L
b10001010 M
b1000111111 N
b10001010 P
b1000111111 Q
b11 U
1V
b0 c
b1000111111 d
0e
1f
b1000111111 k
b10111000111 o
1x
b10001010 y
b1000111111 z
#560000
0!
0.
#565000
1!
1.
b0 7
08
b1011 :
b1011 >
b1011 ?
b10001011 @
b101000000 A
b1011 B
b10001011 C
b1111100000 E
b101100000111 F
b0 I
0K
0L
b0 M
b0 N
0O
b0 P
b0 Q
b0 U
0V
b1011 Z
b1011 ]
b10001011 ^
b101000000 _
b0 c
b0 d
0e
0f
0x
b0 y
b0 z
#570000
0!
0.
#575000
1!
1.
b1 7
b1 U
b0 c
b0 d
0e
0f
b1111100000 g
b101100000111 h
b1010001101 l
b10111100111 m
b111011001 n
b101100000111 o
b1000000111 p
b10010100111101001000111 q
b1111100000 s
b10111100111 t
b1111100000 v
#580000
0!
0.
#585000
1!
1.
b10 7
b11001101101 H
1J
1L
b1011 M
b11001101101 N
1O
b1011 P
b11001101101 Q
b10 U
b11001101101 c
b0 d
1e
0f
b1010001101 i
b11001101101 m
b101010011 n
b1010001101 p
b11001101101 t
1x
b1011 y
b11001101101 z
#590000
0!
0.
#595000
1!
1.
b11 7
18
b11001101101 E
b0 H
b101010011 I
0J
1K
1L
b10001011 M
b101010011 N
b10001011 P
b101010011 Q
b11 U
1V
b0 c
b101010011 d
0e
1f
b101010011 k
b101100000111 o
1x
b10001011 y
b101010011 z
#600000
0!
0.
#605000
1!
1.
b0 7
08
b1100 :
b1100 >
b1100 ?
b10001100 @
b101000000 A
b1100 B
b10001100 C
b100100011111 E
b101011100111 F
b0 I
0K
0L
b0 M
b0 N
0O
b0 P
b0 Q
b0 U
0V
b1100 Z
b1100 ]
b10001100 ^
b101000000 _
b0 c
b0 d
0e
0f
0x
b0 y
b0 z
#610000
0!
0.
#615000
1!
1.
b1 7
b1 U
b0 c
b0 d
0e
0f
b100100011111 g
b101011100111 h
b11101111110 l
b101110101100 m
b11010010010 n
b101011100111 o
b1010001101 p
b10010011010001000100111 q
b100100011111 s
b101110101100 t
b100100011111 v
#620000
0!
0.
#625000
1!
1.
b10 7
b1110011100 H
1J
1L
b1100 M
b1110011100 N
1O
b1100 P
b1110011100 Q
b10 U
b1110011100 c
b0 d
1e
0f
b11101111110 i
b1110011100 m
b110100001 n
b11101111110 p
b1000010011101 t
1x
b1100 y
b1110011100 z
#630000
0!
0.
#635000
1!
1.
b11 7
18
b1110011100 E
b0 H
b110100001 I
0J
1K
1L
b10001100 M
b110100001 N
b10001100 P
b110100001 Q
b11 U
1V
b0 c
b110100001 d
0e
1f
b110100001 k
b101011100111 o
1x
b10001100 y
b110100001 z
#640000
0!
0.
#645000
1!
1.
b0 7
08
b1101 :
b1101 >
b1101 ?
b10001101 @
b101000000 A
b1101 B
b10001101 C
b101101001000 E
b1110111110 F
b0 I
0K
0L
b0 M
b0 N
0O
b0 P
b0 Q
b0 U
0V
b1101 Z
b1101 ]
b10001101 ^
b101000000 _
b0 c
b0 d
0e
0f
0x
b0 y
b0 z
#650000
0!
0.
#655000
1!
1.
b1 7
b1 U
b0 c
b0 d
0e
0f
b101101001000 g
b1110111110 h
b11101001101 l
b10111000101 m
b1111001010 n
b1110111110 o
b11101111110 p
b110010100011000111110 q
b101101001000 s
b1001011000110 t
b101101001000 v
#660000
0!
0.
#665000
1!
1.
b10 7
b10110010100 H
1J
1L
b1101 M
b10110010100 N
1O
b1101 P
b10110010100 Q
b10 U
b10110010100 c
b0 d
1e
0f
b11101001101 i
b10110010100 m
b1111111011 n
b11101001101 p
b1001010010101 t
1x
b1101 y
b10110010100 z
#670000
0!
0.
#675000
1!
1.
b11 7
18
b10110010100 E
b0 H
b1111111011 I
0J
1K
1L
b10001101 M
b1111111011 N
b10001101 P
b1111111011 Q
b11 U
1V
b0 c
b1111111011 d
0e
1f
b1111111011 k
b1110111110 o
1x
b10001101 y
b1111111011 z
#680000
0!
0.
#685000
1!
1.
b0 7
08
b1110 :
b1110 >
b1110 ?
b10001110 @
b101000000 A
b1110 B
b10001110 C
b1001010111 E
b100001110001 F
b0 I
0K
0L
b0 M
b0 N
0O
b0 P
b0 Q
b0 U
0V
b1110 Z
b1110 ]
b10001110 ^
b101000000 _
b0 c
b0 d
0e
0f
0x
b0 y
b0 z
#690000
0!
0.
#695000
1!
1.
b1 7
b1 U
b0 c
b0 d
0e
0f
b1001010111 g
b100001110001 h
b10011001111 l
b100110100100 m
b100000001011 n
b100001110001 o
b11101001101 p
b1110010000001100110001 q
b1001010111 s
b100110100100 t
b1001010111 v
#700000
0!
0.
#705000
1!
1.
b10 7
b11100100110 H
1J
1L
b1110 M
b11100100110 N
1O
b1110 P
b11100100110 Q
b10 U
b11100100110 c
b0 d
1e
0f
b10011001111 i
b11100100110 m
b101010001001 n
b10011001111 p
b11100100110 t
1x
b1110 y
b11100100110 z
#710000
0!
0.
#715000
1!
1.
b11 7
18
b11100100110 E
b0 H
b101010001001 I
0J
1K
1L
b10001110 M
b101010001001 N
b10001110 P
b101010001001 Q
b11 U
1V
b0 c
b101010001001 d
0e
1f
b101010001001 k
b100001110001 o
1x
b10001110 y
b101010001001 z
#720000
0!
0.
#725000
1!
1.
b0 7
08
b1111 :
b1111 >
b1111 ?
b10001111 @
b101000000 A
b1111 B
b10001111 C
b11100001111 E
b101001001001 F
b0 I
0K
0L
b0 M
b0 N
0O
b0 P
b0 Q
b0 U
0V
b1111 Z
b1111 ]
b10001111 ^
b101000000 _
b0 c
b0 d
0e
0f
0x
b0 y
b0 z
#730000
0!
0.
#735000
1!
1.
b1 7
b1 U
b0 c
b0 d
0e
0f
b11100001111 g
b101001001001 h
b11010110010 l
b101111011110 m
b1001000000 n
b101001001001 o
b10011001111 p
b10001010111011100001001 q
b11100001111 s
b101111011110 t
b11100001111 v
#740000
0!
0.
#745000
1!
1.
b10 7
b11000000 H
1J
1L
b1111 M
b11000000 N
1O
b1111 P
b11000000 Q
b10 U
b11000000 c
b0 d
1e
0f
b11010110010 i
b11000000 m
b1011101 n
b11010110010 p
b110111000001 t
1x
b1111 y
b11000000 z
#750000
0!
0.
#755000
1!
1.
b11 7
18
b11000000 E
b0 H
b1011101 I
0J
1K
1L
b10001111 M
b1011101 N
b10001111 P
b1011101 Q
b11 U
1V
b0 c
b1011101 d
0e
1f
b1011101 k
b101001001001 o
1x
b10001111 y
b1011101 z
#760000
0!
0.
#765000
1!
1.
b0 7
08
b10000 :
b10000 >
b10000 ?
b10010000 @
b101000000 A
b10000 B
b10010000 C
b101111011110 E
b10001000010 F
b0 I
0K
0L
b0 M
b0 N
0O
b0 P
b0 Q
b0 U
0V
b10000 Z
b10000 ]
b10010000 ^
b101000000 _
b0 c
b0 d
0e
0f
0x
b0 y
b0 z
#770000
0!
0.
#775000
1!
1.
b1 7
b1 U
b0 c
b0 d
0e
0f
b101111011110 g
b10001000010 h
b110001100 l
b10110001111 m
b10100101100 n
b10001000010 o
b11010110010 p
b111001100000111000010 q
b101111011110 s
b1001010010000 t
b101111011110 v
#780000
0!
0.
#785000
1!
1.
b10 7
b1101001 H
1J
1L
b10000 M
b1101001 N
1O
b10000 P
b1101001 Q
b10 U
b1101001 c
b0 d
1e
0f
b110001100 i
b1101001 m
b101001010010 n
b110001100 p
b110101101010 t
1x
b10000 y
b1101001 z
#790000
0!
0.
#795000
1!
1.
b11 7
18
b1101001 E
b0 H
b101001010010 I
0J
1K
1L
b10010000 M
b101001010010 N
b10010000 P
b101001010010 Q
b11 U
1V
b0 c
b101001010010 d
0e
1f
b101001010010 k
b10001000010 o
1x
b10010000 y
b101001010010 z
#800000
0!
0.
#805000
1!
1.
b0 7
08
b10001 :
b10001 >
b10001 ?
b10010001 @
b101000000 A
b10001 B
b10010001 C
b101010010011 E
b10101100110 F
b0 I
0K
0L
b0 M
b0 N
0O
b0 P
b0 Q
b0 U
0V
b10001 Z
b10001 ]
b10010001 ^
b101000000 _
b0 c
b0 d
0e
0f
0x
b0 y
b0 z
#810000
0!
0.
#815000
1!
1.
b1 7
b1 U
b0 c
b0 d
0e
0f
b101010010011 g
b10101100110 h
b101000011001 l
b110000011111 m
b100100000111 n
b10101100110 o
b110001100 p
b1001000111010111100110 q
b101010010011 s
b110000011111 t
b101010010011 v
#820000
0!
0.
#825000
1!
1.
b10 7
b11110101011 H
1J
1L
b10001 M
b11110101011 N
1O
b10001 P
b11110101011 Q
b10 U
b11110101011 c
b0 d
1e
0f
b101000011001 i
b11110101011 m
b1111010 n
b101000011001 p
b1010010101100 t
1x
b10001 y
b11110101011 z
#830000
0!
0.
#835000
1!
1.
b11 7
18
b11110101011 E
b0 H
b1111010 I
0J
1K
1L
b10010001 M
b1111010 N
b10010001 P
b1111010 Q
b11 U
1V
b0 c
b1111010 d
0e
1f
b1111010 k
b10101100110 o
1x
b10010001 y
b1111010 z
#840000
0!
0.
#845000
1!
1.
b0 7
08
b10010 :
b10010 >
b10010 ?
b10010010 @
b101000000 A
b10010 B
b10010010 C
b10111000100 E
b11101001000 F
b0 I
0K
0L
b0 M
b0 N
0O
b0 P
b0 Q
b0 U
0V
b10010 Z
b10010 ]
b10010010 ^
b101000000 _
b0 c
b0 d
0e
0f
0x
b0 y
b0 z
#850000
0!
0.
