ntt_verilog_codes/ntt_waves.vcd
$date
	Fri Apr 24 11:54:28 2026
$end
$version
	Icarus Verilog
$end
$timescale
	1ps
$end
$scope module tb_ntt_top $end
$var wire 12 ! ext_coeff_rdata [11:0] $end
$var wire 1 " done $end
$var wire 1 # busy $end
$var reg 1 $ clk $end
$var reg 8 % ext_coeff_raddr [7:0] $end
$var reg 8 & ext_coeff_waddr [7:0] $end
$var reg 12 ' ext_coeff_wdata [11:0] $end
$var reg 1 ( ext_coeff_we $end
$var reg 1 ) mode $end
$var reg 1 * reset $end
$var reg 1 + start $end
$var integer 32 , passed_tests [31:0] $end
$var integer 32 - total_tests [31:0] $end
$scope module uut $end
$var wire 1 $ clk $end
$var wire 8 . ext_coeff_raddr [7:0] $end
$var wire 8 / ext_coeff_waddr [7:0] $end
$var wire 12 0 ext_coeff_wdata [11:0] $end
$var wire 1 ( ext_coeff_we $end
$var wire 1 ) mode $end
$var wire 1 * reset $end
$var wire 1 + start $end
$var wire 12 1 tw_data [11:0] $end
$var wire 7 2 tw_addr [6:0] $end
$var wire 7 3 step_idx [6:0] $end
$var wire 3 4 stage_raw [2:0] $end
$var wire 3 5 stage_eff [2:0] $end
$var wire 2 6 phase [1:0] $end
$var wire 12 7 ext_coeff_rdata [11:0] $end
$var wire 1 " done $end
$var wire 10 8 counter [9:0] $end
$var wire 1 9 core_wr_en $end
$var wire 12 : core_wr_data [11:0] $end
$var wire 8 ; core_wr_addr [7:0] $end
$var wire 1 < coeff_wr_en $end
$var wire 12 = coeff_wr_data [11:0] $end
$var wire 8 > coeff_wr_addr [7:0] $end
$var wire 12 ? coeff_rd_b [11:0] $end
$var wire 12 @ coeff_rd_a [11:0] $end
$var wire 8 A coeff_addr_b [7:0] $end
$var wire 8 B coeff_addr_a [7:0] $end
$var wire 1 C butterfly_enable $end
$var wire 1 # busy $end
$var wire 1 D bf_valid_b $end
$var wire 1 E bf_valid_a $end
$var wire 12 F bf_out_b [11:0] $end
$var wire 12 G bf_out_a [11:0] $end
$var wire 1 H advance_step $end
$var wire 9 I addr_tw_raw [8:0] $end
$var wire 1 J addr_done $end
$var wire 9 K addr_b_raw [8:0] $end
$var wire 1 L addr_active $end
$var wire 9 M addr_a_raw [8:0] $end
$scope module u_addr_gen $end
$var wire 1 $ clk $end
$var wire 1 ) mode $end
$var wire 1 * reset $end
$var wire 3 N stage_xor [2:0] $end
$var wire 1 + start $end
$var wire 7 O step_idx [6:0] $end
$var wire 3 P stage_raw [2:0] $end
$var wire 3 Q stage_eff [2:0] $end
$var wire 1 H advance_step $end
$var reg 1 L active $end
$var reg 9 R addr_a_raw [8:0] $end
$var reg 9 S addr_b_raw [8:0] $end
$var reg 9 T addr_tw_raw [8:0] $end
$var reg 10 U counter [9:0] $end
$var reg 1 J done $end
$upscope $end
$scope module u_butterfly_core $end
$var wire 1 $ clk $end
$var wire 1 ) mode $end
$var wire 1 * reset $end
$var wire 12 V tw_in [11:0] $end
$var wire 12 W sum_res [11:0] $end
$var wire 2 X phase [1:0] $end
$var wire 12 Y mult_in_a [11:0] $end
$var wire 12 Z mul_res [11:0] $end
$var wire 1 C enable $end
$var wire 12 [ diff_res [11:0] $end
$var wire 12 \ b_in [11:0] $end
$var wire 12 ] add_sub_in_b [11:0] $end
$var wire 12 ^ a_in [11:0] $end
$var reg 12 _ out_a [11:0] $end
$var reg 12 ` out_b [11:0] $end
$var reg 12 a reg_a [11:0] $end
$var reg 12 b reg_b [11:0] $end
$var reg 12 c reg_diff [11:0] $end
$var reg 12 d reg_mul [11:0] $end
$var reg 12 e reg_sum [11:0] $end
$var reg 1 E valid_a $end
$var reg 1 D valid_b $end
$scope module u_mod_add $end
$var wire 12 f a [11:0] $end
$var wire 12 g b [11:0] $end
$var wire 12 h y [11:0] $end
$var wire 13 i sum_full [12:0] $end
$upscope $end
$scope module u_mod_mult_red $end
$var wire 12 j a [11:0] $end
$var wire 12 k y [11:0] $end
$var wire 24 l prod_full [23:0] $end
$var wire 12 m b [11:0] $end
$upscope $end
$scope module u_mod_sub $end
$var wire 12 n a [11:0] $end
$var wire 12 o b [11:0] $end
$var wire 12 p y [11:0] $end
$upscope $end
$upscope $end
$scope module u_coeff_mem $end
$var wire 8 q addr_a [7:0] $end
$var wire 8 r addr_b [7:0] $end
$var wire 8 s addr_ext [7:0] $end
$var wire 1 $ clk $end
$var wire 12 t rd_data_a [11:0] $end
$var wire 12 u rd_data_b [11:0] $end
$var wire 12 v rd_data_ext [11:0] $end
$var wire 8 w wr_addr [7:0] $end
$var wire 12 x wr_data [11:0] $end
$var wire 1 < wr_en $end
$upscope $end
$scope module u_ntt_controller $end
$var wire 1 J addr_done $end
$var wire 1 $ clk $end
$var wire 1 * reset $end
$var wire 1 + start $end
$var reg 1 H advance_step $end
$var reg 1 # busy $end
$var reg 1 C butterfly_enable $end
$var reg 1 " done $end
$var reg 2 y phase [1:0] $end
$var reg 1 z state $end
$upscope $end
$scope module u_twiddle_mem $end
$var wire 7 { addr_tw [6:0] $end
$var wire 1 ) mode $end
$var wire 12 | tw_data [11:0] $end
$var wire 8 } actual_addr [7:0] $end
$upscope $end
$scope module u_writeback_mux $end
$var wire 8 ~ addr_a [7:0] $end
$var wire 8 !" addr_b [7:0] $end
$var wire 12 "" out_a [11:0] $end
$var wire 12 #" out_b [11:0] $end
$var wire 1 E valid_a $end
$var wire 1 D valid_b $end
$var reg 8 $" wr_addr [7:0] $end
$var reg 12 %" wr_data [11:0] $end
$var reg 1 9 wr_en $end
$upscope $end
$upscope $end
$scope task run_test_case $end
$var reg 1 &" test_mode $end
$var integer 32 '" errors [31:0] $end
$var integer 32 (" i [31:0] $end
$var integer 32 )" test_num [31:0] $end
$upscope $end
$upscope $end
$enddefinitions $end
#0
$dumpvars
bx )"
bx ("
bx '"
x&"
b0 %"
b0 $"
b0 #"
b0 ""
b10000000 !"
b0 ~
b1000000 }
b11011000001 |
b1000000 {
0z
b0 y
b0 x
b0 w
bx v
bx u
bx t
b0 s
b10000000 r
b0 q
b0 p
b0 o
b0 n
b11011000001 m
b0 l
b0 k
b0 j
b0 i
b0 h
b0 g
b0 f
b0 e
b0 d
b0 c
b0 b
b0 a
b0 `
b0 _
bx ^
b0 ]
bx \
b0 [
b0 Z
b0 Y
b0 X
b0 W
b11011000001 V
b0 U
b101000000 T
b10000000 S
b0 R
b0 Q
b0 P
b0 O
b111 N
b0 M
0L
b10000000 K
0J
b101000000 I
0H
b0 G
b0 F
0E
0D
0C
b0 B
b10000000 A
bx @
bx ?
b0 >
b0 =
0<
b0 ;
b0 :
09
b0 8
bx 7
b0 6
b0 5
b0 4
b0 3
b1000000 2
b11011000001 1
b0 0
b0 /
b0 .
b0 -
b0 ,
0+
1*
0)
0(
b0 '
b0 &
b0 %
0$
0#
0"
bx !
$end
#5000
1$
#10000
0$
#15000
1$
#20000
0$
#25000
1$
#30000
0$
#35000
1$
#40000
0$
#45000
1$
#50000
0$
#55000
1$
#60000
0$
#65000
1$
#70000
0$
#75000
1$
#80000
0$
#85000
1$
#90000
0$
#95000
1$
#100000
0$
0*
#105000
1$
#110000
0$
#115000
1$
#120000
0$
b0 '"
0&"
b1 )"
b101010101100 ?
b101010101100 \
b101010101100 u
b1010101010 @
b1010101010 ^
b1010101010 t
b1010101010 !
b1010101010 7
b1010101010 v
#125000
1L
1C
1#
1z
1+
1$
#130000
0$
#135000
b1010101010 W
b1010101010 h
b110000100010 Z
b110000100010 k
b10010000001001110101100 l
b101010101100 Y
b101010101100 j
b1010101010 [
b1010101010 p
b1 6
b1 X
b1 y
b101010101100 b
b1010101010 i
b1010101010 a
b1010101010 f
b1010101010 n
0+
1$
#140000
0$
#145000
b111001011 W
b111001011 h
b111001011 =
b111001011 x
1<
b1110001001 [
b1110001001 p
b111001011 :
b111001011 %"
19
b111011001100 i
b110000100010 ]
b110000100010 g
b110000100010 o
b111001011 G
b111001011 _
b111001011 ""
1E
b110000100010 d
b10 6
b10 X
b10 y
1$
#150000
0$
#155000
b10000000 >
b10000000 w
b1110001001 =
b1110001001 x
b10000000 ;
b10000000 $"
b1110001001 :
b1110001001 %"
19
b1110001001 F
b1110001001 `
b1110001001 #"
1D
b0 G
b0 _
b0 ""
0E
1H
b11 6
b11 X
b11 y
b1110001001 c
b111001011 @
b111001011 ^
b111001011 t
b111001011 !
b111001011 7
b111001011 v
1$
#160000
0$
#165000
b11101111 @
b11101111 ^
b11101111 t
b1 B
b1 q
b1 ~
b10000001 A
b10000001 r
b10000001 !"
b0 =
b0 x
b0 >
b0 w
0<
b1 M
b1 R
b101000000 I
b101000000 T
b10000001 K
b10000001 S
b0 :
b0 %"
b0 ;
b0 $"
09
b1 3
b1 O
b0 F
b0 `
b0 #"
0D
b1 8
b1 U
b0 6
b0 X
b0 y
0H
b11001000001 ?
b11001000001 \
b11001000001 u
1$
#170000
0$
#175000
b11011000010 Z
b11011000010 k
b10000 W
b10000 h
b1010100011110100000001 l
b11001000001 Y
b11001000001 j
b111001110 [
b111001110 p
b1 6
b1 X
b1 y
b11001000001 b
b110100010001 i
b11101111 a
b11101111 f
b11101111 n
1$
#180000
0$
#185000
b11110110001 W
b11110110001 h
b11110110001 =
b11110110001 x
b1 >
b1 w
1<
b11100101110 [
b11100101110 p
b11110110001 :
b11110110001 %"
b1 ;
b1 $"
19
b11110110001 i
b11011000010 ]
b11011000010 g
b11011000010 o
b11110110001 G
b11110110001 _
b11110110001 ""
1E
b11011000010 d
b10 6
b10 X
b10 y
1$
#190000
0$
#195000
b11100101110 =
b11100101110 x
b10000001 >
b10000001 w
b11100101110 :
b11100101110 %"
b10000001 ;
b10000001 $"
19
b11100101110 F
b11100101110 `
b11100101110 #"
1D
b0 G
b0 _
b0 ""
0E
1H
b11 6
b11 X
b11 y
b11100101110 c
b11110110001 @
b11110110001 ^
b11110110001 t
1$
#200000
0$
#205000
b10000010 A
b10000010 r
b10000010 !"
b101111000000 @
b101111000000 ^
b101111000000 t
b10 B
b10 q
b10 ~
b0 =
b0 x
b0 >
b0 w
0<
b101000000 I
b101000000 T
b10000010 K
b10000010 S
b10 M
b10 R
b0 :
b0 %"
b0 ;
b0 $"
09
b10 3
b10 O
b0 F
b0 `
b0 #"
0D
b10 8
b10 U
b0 6
b0 X
b0 y
0H
b100100000110 ?
b100100000110 \
b100100000110 u
1$
#210000
0$
#215000
b100111010111 Z
b100111010111 k
b10110000001 W
b10110000001 h
b1111001111000110000110 l
b100100000110 Y
b100100000110 j
b10011111110 [
b10011111110 p
b1 6
b1 X
b1 y
b100100000110 b
b1001010000010 i
b101111000000 a
b101111000000 f
b101111000000 n
1$
#220000
0$
#225000
b100010010110 W
b100010010110 h
b100010010110 =
b100010010110 x
b10 >
b10 w
1<
b111101001 [
b111101001 p
b100010010110 :
b100010010110 %"
b10 ;
b10 $"
19
b1010110010111 i
b100111010111 ]
b100111010111 g
b100111010111 o
b100010010110 G
b100010010110 _
b100010010110 ""
1E
b100111010111 d
b10 6
b10 X
b10 y
1$
#230000
0$
#235000
b111101001 =
b111101001 x
b10000010 >
b10000010 w
b111101001 :
b111101001 %"
b10000010 ;
b10000010 $"
19
b111101001 F
b111101001 `
b111101001 #"
1D
b0 G
b0 _
b0 ""
0E
1H
b11 6
b11 X
b11 y
b111101001 c
b100010010110 @
b100010010110 ^
b100010010110 t
1$
#240000
0$
#245000
b10000011 A
b10000011 r
b10000011 !"
b110000110011 @
b110000110011 ^
b110000110011 t
b11 B
b11 q
b11 ~
b0 =
b0 x
b0 >
b0 w
0<
b101000000 I
b101000000 T
b10000011 K
b10000011 S
b11 M
b11 R
b0 :
b0 %"
b0 ;
b0 $"
09
b11 3
b11 O
b0 F
b0 `
b0 #"
0D
b11 8
b11 U
b0 6
b0 X
b0 y
0H
b100011100010 ?
b100011100010 \
b100011100010 u
1$
#250000
0$
#255000
b11000101 Z
b11000101 k
b100100001001 W
b100100001001 h
b1110111111111001100010 l
b100011100010 Y
b100011100010 j
b1001011100 [
b1001011100 p
b1 6
b1 X
b1 y
b100011100010 b
b1011000001010 i
b110000110011 a
b110000110011 f
b110000110011 n
1$
#260000
0$
#265000
b110011111000 W
b110011111000 h
b110011111000 =
b110011111000 x
b11 >
b11 w
1<
b101101101110 [
b101101101110 p
b110011111000 :
b110011111000 %"
b11 ;
b11 $"
19
b110011111000 i
b11000101 ]
b11000101 g
b11000101 o
b110011111000 G
b110011111000 _
b110011111000 ""
1E
b11000101 d
b10 6
b10 X
b10 y
1$
#270000
0$
#275000
b101101101110 =
b101101101110 x
b10000011 >
b10000011 w
b101101101110 :
b101101101110 %"
b10000011 ;
b10000011 $"
19
b101101101110 F
b101101101110 `
b101101101110 #"
1D
b0 G
b0 _
b0 ""
0E
1H
b11 6
b11 X
b11 y
b101101101110 c
b110011111000 @
b110011111000 ^
b110011111000 t
1$
#280000
0$
#285000
b10000100 A
b10000100 r
b10000100 !"
b110001000011 @
b110001000011 ^
b110001000011 t
b100 B
b100 q
b100 ~
b0 =
b0 x
b0 >
b0 w
0<
b101000000 I
b101000000 T
b10000100 K
b10000100 S
b100 M
b100 R
b0 :
b0 %"
b0 ;
b0 $"
09
b100 3
b100 O
b0 F
b0 `
b0 #"
0D
b100 8
b100 U
b0 6
b0 X
b0 y
0H
b101110001110 ?
b101110001110 \
b101110001110 u
1$
#290000
0$
#295000
b10000001110 Z
b10000001110 k
b111 W
b111 h
b10011100000101000001110 l
b101110001110 Y
b101110001110 j
b101101111110 [
b101101111110 p
b1 6
b1 X
b1 y
b101110001110 b
b110100001000 i
b110001000011 a
b110001000011 f
b110001000011 n
1$
#300000
0$
#305000
b1101010000 W
b1101010000 h
b1101010000 =
b1101010000 x
b100 >
b100 w
1<
b100000110101 [
b100000110101 p
b1101010000 :
b1101010000 %"
b100 ;
b100 $"
19
b1000001010001 i
b10000001110 ]
b10000001110 g
b10000001110 o
b1101010000 G
b1101010000 _
b1101010000 ""
1E
b10000001110 d
b10 6
b10 X
b10 y
1$
#310000
0$
#315000
b100000110101 =
b100000110101 x
b10000100 >
b10000100 w
b100000110101 :
b100000110101 %"
b10000100 ;
b10000100 $"
19
b100000110101 F
b100000110101 `
b100000110101 #"
1D
b0 G
b0 _
b0 ""
0E
1H
b11 6
b11 X
b11 y
b100000110101 c
b1101010000 @
b1101010000 ^
b1101010000 t
1$
#320000
0$
#325000
b10000101 A
b10000101 r
b10000101 !"
b101011111000 @
b101011111000 ^
b101011111000 t
b101 B
b101 q
b101 ~
b0 =
b0 x
b0 >
b0 w
0<
b101000000 I
b101000000 T
b10000101 K
b10000101 S
b101 M
b101 R
b0 :
b0 %"
b0 ;
b0 $"
09
b101 3
b101 O
b0 F
b0 `
b0 #"
0D
b101 8
b101 U
b0 6
b0 X
b0 y
0H
b1111001010 ?
b1111001010 \
b1111001010 u
1$
#330000
0$
#335000
b101001010011 Z
b101001010011 k
b1000000101 W
b1000000101 h
b110011001011101001010 l
b1111001010 Y
b1111001010 j
b11011101010 [
b11011101010 p
b1 6
b1 X
b1 y
b1111001010 b
b111100000110 i
b101011111000 a
b101011111000 f
b101011111000 n
1$
#340000
0$
#345000
b100001001010 W
b100001001010 h
b100001001010 =
b100001001010 x
b101 >
b101 w
1<
b10100101 [
b10100101 p
b100001001010 :
b100001001010 %"
b101 ;
b101 $"
19
b1010101001011 i
b101001010011 ]
b101001010011 g
b101001010011 o
b100001001010 G
b100001001010 _
b100001001010 ""
1E
b101001010011 d
b10 6
b10 X
b10 y
1$
#350000
0$
#355000
b10100101 =
b10100101 x
b10000101 >
b10000101 w
b10100101 :
b10100101 %"
b10000101 ;
b10000101 $"
19
b10100101 F
b10100101 `
b10100101 #"
1D
b0 G
b0 _
b0 ""
0E
1H
b11 6
b11 X
b11 y
b10100101 c
b100001001010 @
b100001001010 ^
b100001001010 t
1$
#360000
0$
#365000
b10000110 A
b10000110 r
b10000110 !"
b11000110100 @
b11000110100 ^
b11000110100 t
b110 B
b110 q
b110 ~
b0 =
b0 x
b0 >
b0 w
0<
b101000000 I
b101000000 T
b10000110 K
b10000110 S
b110 M
b110 R
b0 :
b0 %"
b0 ;
b0 $"
09
b110 3
b110 O
b0 F
b0 `
b0 #"
0D
b110 8
b110 U
b0 6
b0 X
b0 y
0H
b110000110110 ?
b110000110110 \
b110000110110 u
1$
#370000
0$
#375000
b11101011111 Z
b11101011111 k
b1110000110 W
b1110000110 h
b10100100111100010110110 l
b110000110110 Y
b110000110110 j
b100011100010 [
b100011100010 p
b1 6
b1 X
b1 y
b110000110110 b
b1000010000111 i
b11000110100 a
b11000110100 f
b11000110100 n
1$
#380000
0$
#385000
b10010010 W
b10010010 h
b10010010 =
b10010010 x
b110 >
b110 w
1<
b101111010110 [
b101111010110 p
b10010010 :
b10010010 %"
b110 ;
b110 $"
19
b110110010011 i
b11101011111 ]
b11101011111 g
b11101011111 o
b10010010 G
b10010010 _
b10010010 ""
1E
b11101011111 d
b10 6
b10 X
b10 y
1$
#390000
0$
#395000
b101111010110 =
b101111010110 x
b10000110 >
b10000110 w
b101111010110 :
b101111010110 %"
b10000110 ;
b10000110 $"
19
b101111010110 F
b101111010110 `
b101111010110 #"
1D
b0 G
b0 _
b0 ""
0E
1H
b11 6
b11 X
b11 y
b101111010110 c
b10010010 @
b10010010 ^
b10010010 t
1$
#400000
0$
#405000
b10000111 A
b10000111 r
b10000111 !"
b110001100001 @
b110001100001 ^
b110001100001 t
b111 B
b111 q
b111 ~
b0 =
b0 x
b0 >
b0 w
0<
b101000000 I
b101000000 T
b10000111 K
b10000111 S
b111 M
b111 R
b0 :
b0 %"
b0 ;
b0 $"
09
b111 3
b111 O
b0 F
b0 `
b0 #"
0D
b111 8
b111 U
b0 6
b0 X
b0 y
0H
b11111110101 ?
b11111110101 \
b11111110101 u
1$
#410000
0$
#415000
b110010010100 Z
b110010010100 k
b11010111111 W
b11010111111 h
b1101011011110110110101 l
b11111110101 Y
b11111110101 j
b10100000010 [
b10100000010 p
b1 6
b1 X
b1 y
b11111110101 b
b1001111000000 i
b110001100001 a
b110001100001 f
b110001100001 n
1$
#420000
0$
#425000
b101111110100 W
b101111110100 h
b101111110100 =
b101111110100 x
b111 >
b111 w
1<
b110011001110 [
b110011001110 p
b101111110100 :
b101111110100 %"
b111 ;
b111 $"
19
b1100011110101 i
b110010010100 ]
b110010010100 g
b110010010100 o
b101111110100 G
b101111110100 _
b101111110100 ""
1E
b110010010100 d
b10 6
b10 X
b10 y
1$
#430000
0$
#435000
b110011001110 =
b110011001110 x
b10000111 >
b10000111 w
b110011001110 :
b110011001110 %"
b10000111 ;
b10000111 $"
19
b110011001110 F
b110011001110 `
b110011001110 #"
1D
b0 G
b0 _
b0 ""
0E
1H
b11 6
b11 X
b11 y
b110011001110 c
b101111110100 @
b101111110100 ^
b101111110100 t
1$
#440000
0$
#445000
b10001000 A
b10001000 r
b10001000 !"
b1010111100 @
b1010111100 ^
b1010111100 t
b1000 B
b1000 q
b1000 ~
b0 =
b0 x
b0 >
b0 w
0<
b101000000 I
b101000000 T
b10001000 K
b10001000 S
b1000 M
b1000 R
b0 :
b0 %"
b0 ;
b0 $"
09
b1000 3
b1000 O
b0 F
b0 `
b0 #"
0D
b1000 8
b1000 U
b0 6
b0 X
b0 y
0H
b110000100100 ?
b110000100100 \
b110000100100 u
1$
#450000
0$
#455000
b1011010110 Z
b1011010110 k
b1001001111 W
b1001001111 h
b10100011111111100100100 l
b110000100100 Y
b110000100100 j
b1100101001 [
b1100101001 p
b1 6
b1 X
b1 y
b110000100100 b
b111101010000 i
b1010111100 a
b1010111100 f
b1010111100 n
1$
#460000
0$
#465000
b10110010010 W
b10110010010 h
b10110010010 =
b10110010010 x
b1000 >
b1000 w
1<
b110011100111 [
b110011100111 p
b10110010010 :
b10110010010 %"
b1000 ;
b1000 $"
19
b10110010010 i
b1011010110 ]
b1011010110 g
b1011010110 o
b10110010010 G
b10110010010 _
b10110010010 ""
1E
b1011010110 d
b10 6
b10 X
b10 y
1$
#470000
0$
#475000
b110011100111 =
b110011100111 x
b10001000 >
b10001000 w
b110011100111 :
b110011100111 %"
b10001000 ;
b10001000 $"
19
b110011100111 F
b110011100111 `
b110011100111 #"
1D
b0 G
b0 _
b0 ""
0E
1H
b11 6
b11 X
b11 y
b110011100111 c
b10110010010 @
b10110010010 ^
b10110010010 t
1$
#480000
0$
#485000
b10001001 A
b10001001 r
b10001001 !"
b110001101100 @
b110001101100 ^
b110001101100 t
b1001 B
b1001 q
b1001 ~
b0 =
b0 x
b0 >
b0 w
0<
b101000000 I
b101000000 T
b10001001 K
b10001001 S
b1001 M
b1001 R
b0 :
b0 %"
b0 ;
b0 $"
09
b1001 3
b1001 O
b0 F
b0 `
b0 #"
0D
b1001 8
b1001 U
b0 6
b0 X
b0 y
0H
b100010010011 ?
b100010010011 \
b100010010011 u
1$
#490000
0$
#495000
b1011111 Z
b1011111 k
b1001000001 W
b1001000001 h
b1110011110100011010011 l
b100010010011 Y
b100010010011 j
b100110010110 [
b100110010110 p
b1 6
b1 X
b1 y
b100010010011 b
b111101000010 i
b110001101100 a
b110001101100 f
b110001101100 n
1$
#500000
0$
#505000
b110011001011 W
b110011001011 h
b110011001011 =
b110011001011 x
b1001 >
b1001 w
1<
b110000001101 [
b110000001101 p
b110011001011 :
b110011001011 %"
b1001 ;
b1001 $"
19
b110011001011 i
b1011111 ]
b1011111 g
b1011111 o
b110011001011 G
b110011001011 _
b110011001011 ""
1E
b1011111 d
b10 6
b10 X
b10 y
1$
#510000
0$
#515000
b110000001101 =
b110000001101 x
b10001001 >
b10001001 w
b110000001101 :
b110000001101 %"
b10001001 ;
b10001001 $"
19
b110000001101 F
b110000001101 `
b110000001101 #"
1D
b0 G
b0 _
b0 ""
0E
1H
b11 6
b11 X
b11 y
b110000001101 c
b110011001011 @
b110011001011 ^
b110011001011 t
1$
#520000
0$
#525000
b10001010 A
b10001010 r
b10001010 !"
b10001000110 @
b10001000110 ^
b10001000110 t
b1010 B
b1010 q
b1010 ~
b0 =
b0 x
b0 >
b0 w
0<
b101000000 I
b101000000 T
b10001010 K
b10001010 S
b1010 M
b1010 R
b0 :
b0 %"
b0 ;
b0 $"
09
b1010 3
b1010 O
b0 F
b0 `
b0 #"
0D
b1010 8
b1010 U
b0 6
b0 X
b0 y
0H
b10111000111 ?
b10111000111 \
b10111000111 u
1$
#530000
0$
#535000
b10010100101 W
b10010100101 h
b1000000111 Z
b1000000111 k
b1001110000010100000111 l
b10111000111 Y
b10111000111 j
b1111100111 [
b1111100111 p
b1 6
b1 X
b1 y
b10111000111 b
b10010100101 i
b10001000110 a
b10001000110 f
b10001000110 n
1$
#540000
0$
#545000
b11001001101 W
b11001001101 h
b11001001101 =
b11001001101 x
b1010 >
b1010 w
1<
b1000111111 [
b1000111111 p
b11001001101 :
b11001001101 %"
b1010 ;
b1010 $"
19
b11001001101 i
b1000000111 ]
b1000000111 g
b1000000111 o
b11001001101 G
b11001001101 _
b11001001101 ""
1E
b1000000111 d
b10 6
b10 X
b10 y
1$
#550000
0$
#555000
b1000111111 =
b1000111111 x
b10001010 >
b10001010 w
b1000111111 :
b1000111111 %"
b10001010 ;
b10001010 $"
19
b1000111111 F
b1000111111 `
b1000111111 #"
1D
b0 G
b0 _
b0 ""
0E
1H
b11 6
b11 X
b11 y
b1000111111 c
b11001001101 @
b11001001101 ^
b11001001101 t
1$
#560000
0$
#565000
b10001011 A
b10001011 r
b10001011 !"
b1111100000 @
b1111100000 ^
b1111100000 t
b1011 B
b1011 q
b1011 ~
b0 =
b0 x
b0 >
b0 w
0<
b101000000 I
b101000000 T
b10001011 K
b10001011 S
b1011 M
b1011 R
b0 :
b0 %"
b0 ;
b0 $"
09
b1011 3
b1011 O
b0 F
b0 `
b0 #"
0D
b1011 8
b1011 U
b0 6
b0 X
b0 y
0H
b101100000111 ?
b101100000111 \
b101100000111 u
1$
#570000
0$
#575000
b10111100111 W
b10111100111 h
b1010001101 Z
b1010001101 k
b10010100111101001000111 l
b101100000111 Y
b101100000111 j
b111011001 [
b111011001 p
b1 6
b1 X
b1 y
b101100000111 b
b10111100111 i
b1111100000 a
b1111100000 f
b1111100000 n
1$
#580000
0$
#585000
b11001101101 W
b11001101101 h
b11001101101 =
b11001101101 x
b1011 >
b1011 w
1<
b101010011 [
b101010011 p
b11001101101 :
b11001101101 %"
b1011 ;
b1011 $"
19
b11001101101 i
b1010001101 ]
b1010001101 g
b1010001101 o
b11001101101 G
b11001101101 _
b11001101101 ""
1E
b1010001101 d
b10 6
b10 X
b10 y
1$
#590000
0$
#595000
b101010011 =
b101010011 x
b10001011 >
b10001011 w
b101010011 :
b101010011 %"
b10001011 ;
b10001011 $"
19
b101010011 F
b101010011 `
b101010011 #"
1D
b0 G
b0 _
b0 ""
0E
1H
b11 6
b11 X
b11 y
b101010011 c
b11001101101 @
b11001101101 ^
b11001101101 t
1$
#600000
0$
#605000
b10001100 A
b10001100 r
b10001100 !"
b100100011111 @
b100100011111 ^
b100100011111 t
b1100 B
b1100 q
b1100 ~
b0 =
b0 x
b0 >
b0 w
0<
b101000000 I
b101000000 T
b10001100 K
b10001100 S
b1100 M
b1100 R
b0 :
b0 %"
b0 ;
b0 $"
09
b1100 3
b1100 O
b0 F
b0 `
b0 #"
0D
b1100 8
b1100 U
b0 6
b0 X
b0 y
0H
b101011100111 ?
b101011100111 \
b101011100111 u
1$
#610000
0$
#615000
b101110101100 W
b101110101100 h
b11101111110 Z
b11101111110 k
b10010011010001000100111 l
b101011100111 Y
b101011100111 j
b11010010010 [
b11010010010 p
b1 6
b1 X
b1 y
b101011100111 b
b101110101100 i
b100100011111 a
b100100011111 f
b100100011111 n
1$
#620000
0$
#625000
b1110011100 W
b1110011100 h
b1110011100 =
b1110011100 x
b1100 >
b1100 w
1<
b110100001 [
b110100001 p
b1110011100 :
b1110011100 %"
b1100 ;
b1100 $"
19
b1000010011101 i
b11101111110 ]
b11101111110 g
b11101111110 o
b1110011100 G
b1110011100 _
b1110011100 ""
1E
b11101111110 d
b10 6
b10 X
b10 y
1$
#630000
0$
#635000
b110100001 =
b110100001 x
b10001100 >
b10001100 w
b110100001 :
b110100001 %"
b10001100 ;
b10001100 $"
19
b110100001 F
b110100001 `
b110100001 #"
1D
b0 G
b0 _
b0 ""
0E
1H
b11 6
b11 X
b11 y
b110100001 c
b1110011100 @
b1110011100 ^
b1110011100 t
1$
#640000
0$
#645000
b10001101 A
b10001101 r
b10001101 !"
b101101001000 @
b101101001000 ^
b101101001000 t
b1101 B
b1101 q
b1101 ~
b0 =
b0 x
b0 >
b0 w
0<
b101000000 I
b101000000 T
b10001101 K
b10001101 S
b1101 M
b1101 R
b0 :
b0 %"
b0 ;
b0 $"
09
b1101 3
b1101 O
b0 F
b0 `
b0 #"
0D
b1101 8
b1101 U
b0 6
b0 X
b0 y
0H
b1110111110 ?
b1110111110 \
b1110111110 u
1$
#650000
0$
#655000
b11101001101 Z
b11101001101 k
b10111000101 W
b10111000101 h
b110010100011000111110 l
b1110111110 Y
b1110111110 j
b1111001010 [
b1111001010 p
b1 6
b1 X
b1 y
b1110111110 b
b1001011000110 i
b101101001000 a
b101101001000 f
b101101001000 n
1$
#660000
0$
#665000
b10110010100 W
b10110010100 h
b10110010100 =
b10110010100 x
b1101 >
b1101 w
1<
b1111111011 [
b1111111011 p
b10110010100 :
b10110010100 %"
b1101 ;
b1101 $"
19
b1001010010101 i
b11101001101 ]
b11101001101 g
b11101001101 o
b10110010100 G
b10110010100 _
b10110010100 ""
1E
b11101001101 d
b10 6
b10 X
b10 y
1$
#670000
0$
#675000
b1111111011 =
b1111111011 x
b10001101 >
b10001101 w
b1111111011 :
b1111111011 %"
b10001101 ;
b10001101 $"
19
b1111111011 F
b1111111011 `
b1111111011 #"
1D
b0 G
b0 _
b0 ""
0E
1H
b11 6
b11 X
b11 y
b1111111011 c
b10110010100 @
b10110010100 ^
b10110010100 t
1$
#680000
0$
#685000
b10001110 A
b10001110 r
b10001110 !"
b1001010111 @
b1001010111 ^
b1001010111 t
b1110 B
b1110 q
b1110 ~
b0 =
b0 x
b0 >
b0 w
0<
b101000000 I
b101000000 T
b10001110 K
b10001110 S
b1110 M
b1110 R
b0 :
b0 %"
b0 ;
b0 $"
09
b1110 3
b1110 O
b0 F
b0 `
b0 #"
0D
b1110 8
b1110 U
b0 6
b0 X
b0 y
0H
b100001110001 ?
b100001110001 \
b100001110001 u
1$
#690000
0$
#695000
b10011001111 Z
b10011001111 k
b100110100100 W
b100110100100 h
b1110010000001100110001 l
b100001110001 Y
b100001110001 j
b100000001011 [
b100000001011 p
b1 6
b1 X
b1 y
b100001110001 b
b100110100100 i
b1001010111 a
b1001010111 f
b1001010111 n
1$
#700000
0$
#705000
b11100100110 W
b11100100110 h
b11100100110 =
b11100100110 x
b1110 >
b1110 w
1<
b101010001001 [
b101010001001 p
b11100100110 :
b11100100110 %"
b1110 ;
b1110 $"
19
b11100100110 i
b10011001111 ]
b10011001111 g
b10011001111 o
b11100100110 G
b11100100110 _
b11100100110 ""
1E
b10011001111 d
b10 6
b10 X
b10 y
1$
#710000
0$
#715000
b101010001001 =
b101010001001 x
b10001110 >
b10001110 w
b101010001001 :
b101010001001 %"
b10001110 ;
b10001110 $"
19
b101010001001 F
b101010001001 `
b101010001001 #"
1D
b0 G
b0 _
b0 ""
0E
1H
b11 6
b11 X
b11 y
b101010001001 c
b11100100110 @
b11100100110 ^
b11100100110 t
1$
#720000
0$
